day_type,time_range,num_crashes,num_crashes_norm
1,0,14,0.323980779609
1,1,2,0.0462829685155
1,2,8,0.185131874062
1,4,2,0.0462829685155
1,5,3,0.0694244527733
1,6,21,0.485971169413
1,7,52,1.2033571814
1,8,93,2.15215803597
1,9,75,1.73561131933
1,10,60,1.38848905547
1,11,68,1.57362092953
1,12,77,1.78189428785
1,13,76,1.75875280359
1,14,56,1.29592311844
1,15,75,1.73561131933
1,16,76,1.75875280359
1,17,86,1.99016764617
1,18,66,1.52733796101
1,19,68,1.57362092953
1,20,44,1.01822530734
1,21,18,0.41654671664
1,22,19,0.439688200898
1,23,9,0.20827335832
2,0,8,0.185131874062
2,1,7,0.161990389804
2,2,6,0.138848905547
2,3,1,0.0231414842578
2,4,1,0.0231414842578
2,5,3,0.0694244527733
2,6,18,0.41654671664
2,7,63,1.45791350824
2,8,91,2.10587506746
2,9,88,2.03645061468
2,10,88,2.03645061468
2,11,62,1.43477202398
2,12,67,1.55047944527
2,13,60,1.38848905547
2,14,68,1.57362092953
2,15,71,1.6430453823
2,16,65,1.50419647676
2,17,95,2.19844100449
2,18,84,1.94388467765
2,19,66,1.52733796101
2,20,36,0.83309343328
2,21,18,0.41654671664
2,22,17,0.393405232382
2,23,11,0.254556326836
3,0,8,0.185131874062
3,1,12,0.277697811093
3,2,4,0.0925659370311
3,3,3,0.0694244527733
3,4,4,0.0925659370311
3,5,7,0.161990389804
3,6,18,0.41654671664
3,7,72,1.66618686656
3,8,90,2.0827335832
3,9,85,1.96702616191
3,10,71,1.6430453823
3,11,81,1.87446022488
3,12,86,1.99016764617
3,13,78,1.80503577211
3,14,58,1.34220608695
3,15,63,1.45791350824
3,16,78,1.80503577211
3,17,75,1.73561131933
3,18,86,1.99016764617
3,19,75,1.73561131933
3,20,32,0.740527496249
3,21,26,0.601678590702
3,22,10,0.231414842578
3,23,13,0.300839295351
4,0,13,0.300839295351
4,1,8,0.185131874062
4,2,6,0.138848905547
4,3,1,0.0231414842578
4,4,2,0.0462829685155
4,5,5,0.115707421289
4,6,18,0.41654671664
4,7,51,1.18021569715
4,8,99,2.29100694152
4,9,84,1.94388467765
4,10,73,1.68932835082
4,11,62,1.43477202398
4,12,73,1.68932835082
4,13,88,2.03645061468
4,14,73,1.68932835082
4,15,58,1.34220608695
4,16,88,2.03645061468
4,17,90,2.0827335832
4,18,71,1.6430453823
4,19,70,1.61990389804
4,20,36,0.83309343328
4,21,22,0.509112653671
4,22,16,0.370263748124
4,23,14,0.323980779609
5,0,17,0.393405232382
5,1,8,0.185131874062
5,2,5,0.115707421289
5,3,4,0.0925659370311
5,4,8,0.185131874062
5,5,9,0.20827335832
5,6,18,0.41654671664
5,7,30,0.694244527733
5,8,84,1.94388467765
5,9,70,1.61990389804
5,10,70,1.61990389804
5,11,69,1.59676241379
5,12,69,1.59676241379
5,13,71,1.6430453823
5,14,75,1.73561131933
5,15,73,1.68932835082
5,16,87,2.01330913043
5,17,80,1.85131874062
5,18,75,1.73561131933
5,19,68,1.57362092953
5,20,47,1.08764976012
5,21,18,0.41654671664
5,22,12,0.277697811093
5,23,20,0.462829685155
6,0,24,0.555395622187
6,1,19,0.439688200898
6,2,8,0.185131874062
6,3,7,0.161990389804
6,4,17,0.393405232382
6,5,11,0.254556326836
6,6,7,0.161990389804
6,7,13,0.300839295351
6,8,30,0.694244527733
6,9,37,0.856234917538
6,10,54,1.24964014992
6,11,65,1.50419647676
6,12,69,1.59676241379
6,13,72,1.66618686656
6,14,45,1.0413667916
6,15,45,1.0413667916
6,16,56,1.29592311844
6,17,61,1.41163053972
6,18,49,1.13393272863
6,19,61,1.41163053972
6,20,40,0.925659370311
6,21,21,0.485971169413
6,22,17,0.393405232382
6,23,27,0.62482007496
7,0,25,0.578537106444
7,1,19,0.439688200898
7,2,23,0.532254137929
7,3,29,0.671103043475
7,4,9,0.20827335832
7,5,18,0.41654671664
7,6,8,0.185131874062
7,7,12,0.277697811093
7,8,17,0.393405232382
7,9,30,0.694244527733
7,10,42,0.971942338827
7,11,36,0.83309343328
7,12,33,0.763668980507
7,13,41,0.948800854569
7,14,18,0.41654671664
7,15,35,0.809951949022
7,16,40,0.925659370311
7,17,57,1.31906460269
7,18,58,1.34220608695
7,19,37,0.856234917538
7,20,34,0.786810464764
7,21,18,0.41654671664
7,22,17,0.393405232382
7,23,15,0.347122263867
