square_id,residents,employees
2052_0_0,8337.64207311,8331.7887325
2052_0_1,10701.4963396,11385.8562637
2052_0_2_0,3251.13949885,3198.90926888
2052_0_2_1,2342.0648206,2952.58918098
2052_0_2_2,8506.67670099,8863.57573992
2052_0_2_3,4786.51613264,4723.57337336
2052_0_3,9230.70239748,9496.93179166
2052_1_0,7290.58266228,6848.05363555
2052_1_1,2462.09847863,2286.25503421
2052_1_2,5408.90006364,4449.41978855
2052_1_3_0,3998.64312862,3461.46220059
2052_1_3_1,3888.1533643,3160.29027811
2052_1_3_2,4119.36982486,3347.55179334
2052_1_3_3,11501.0544135,9181.06739266
2052_2_0_0_0,12079.2850744,11307.683239
2052_2_0_0_1,10829.8438338,8892.16932296
2052_2_0_0_2,20940.1136174,19839.2283646
2052_2_0_0_3_0,5556.53827001,6068.44255993
2052_2_0_0_3_1,4786.91180856,4998.28315295
2052_2_0_0_3_2,5426.35545131,5783.61520579
2052_2_0_0_3_3,5085.04720718,5926.16782349
2052_2_0_1,11197.2839346,10234.2792453
2052_2_0_2,12175.7302291,13300.4990831
2052_2_0_3_0_0,8175.08877278,10048.5596831
2052_2_0_3_0_1,7041.55435483,7629.32909968
2052_2_0_3_0_2,5814.18698564,6656.84764253
2052_2_0_3_0_3,7923.54671198,9874.02208458
2052_2_0_3_1,11861.655494,12672.5052786
2052_2_0_3_2,3569.41201257,3999.11885178
2052_2_0_3_3_0,9203.38780987,9424.1158364
2052_2_0_3_3_1,5643.95418895,6102.42784043
2052_2_0_3_3_2,3488.46643935,3480.43141899
2052_2_0_3_3_3,2569.24039035,2346.38699883
2052_2_1,3149.39551603,2879.92844046
2052_2_2,411.039047109,416.1040043
2052_2_3,16133.4661039,18070.7779403
2052_3_0,11025.427749,11579.0451001
2052_3_1,68389.5162146,72933.2771149
2052_3_2,6179.28460787,6087.18409641
2052_3_3,3902.59554834,3855.98262135
2061_0_0,24543.2056864,21603.2532201
2061_0_1,24215.0157787,25343.6090673
2061_0_2,15438.9614598,14307.8960749
2061_0_3,19206.0755954,17437.3379152
2061_1_0,20594.7026519,19859.0510599
2061_1_1,39390.8017519,37459.8833247
2061_1_2,20452.4268689,19763.6543739
2061_1_3,10008.2259294,9683.29780809
2061_2_0,23932.652585,22012.5148123
2061_2_1,8995.33577442,8578.99433731
2061_2_2,2535.25715152,2352.98892543
2061_2_3,5009.54098752,4549.90714938
2061_3_0,24396.6570008,22234.2758423
2061_3_1,10897.2357835,10488.9950103
2061_3_2,7111.44601199,6617.97096541
2061_3_3,13766.4668584,13292.4432756
2062_0_0,52636.8723686,54482.9789044
2062_0_1,8717.88790515,8101.90778775
2062_0_2,6037.38763788,5860.89822102
2062_0_3,14105.9530682,14533.7599446
2062_1_0,1355.19672795,1294.20695132
2062_1_3,1062.31801446,934.520014976
2062_2_0,954.752990275,905.995732591
2062_2_3,1150.51588932,1135.36666163
2062_3_0,18658.3493919,20663.4392052
2062_3_1,7180.0377586,7162.00069074
2062_3_2,6997.45870425,7000.11275963
2062_3_3,15523.5360522,17204.6640583
2063_0_0,6064.47242448,5232.60418455
2063_0_1,22040.5268056,19385.6789205
2063_0_2,12764.7387003,11249.193615
2063_0_3,13427.9821224,12734.9485479
2063_1,60713.5296101,57197.0223883
2063_2_0,18293.0655259,15779.1285443
2063_2_1,8203.175529,8002.9617023
2063_2_2,9633.54341507,9459.24489283
2063_2_3,7669.03664862,6799.6748588
2063_3_0,9724.81027452,8997.56274629
2063_3_1,7722.08983744,6798.00615979
2063_3_2,1415.62896461,1219.59319751
2063_3_3,1193.99027173,1057.41574986
2064_0_0,9639.69771268,9443.14623991
2064_0_1,26139.9084673,23285.9215661
2064_0_2,21442.6214853,18947.4975715
2064_0_3,12465.2970591,10972.6205354
2064_1_0_0,12865.1710372,12027.3313525
2064_1_0_1,18017.5792632,15655.9753888
2064_1_0_2,9156.15146406,8029.4353982
2064_1_0_3,25702.1268452,24732.9078671
2064_1_1,20171.8228281,17842.7133326
2064_1_2,22139.9493133,20504.3894252
2064_1_3,56706.8997531,53800.2007286
2064_2_0,49532.3439046,43958.7566877
2064_2_1,49059.2503856,45830.1942301
2064_2_2,25217.1597239,26475.8974033
2064_2_3,30462.3628128,28332.8501401
2064_3_0,9378.32149974,8788.59656627
2064_3_1,14738.4459125,13040.7113924
2064_3_2,14837.5561945,13257.7849657
2064_3_3,7058.7459715,6080.31430332
2097_0_0,5008.19869924,4693.47831985
2097_0_1,9273.71732492,8520.54470239
2097_0_2,1742.23104479,1552.10501684
2097_0_3,1504.7543394,1350.51207711
2097_1_0,17021.1391178,14650.3196086
2097_1_1,28756.69893,28683.5261638
2097_1_2,11528.9284854,10153.8832754
2097_1_3,8040.05150027,6901.33383398
2097_2_0,5009.71811204,4670.67513448
2097_2_1,4189.83245214,3710.24669084
2097_2_2,8083.99885562,7054.90608825
2097_2_3,5851.36686481,5306.59017448
2097_3_0,1261.74415102,986.1857688
2097_3_1,2546.16798693,2370.78403616
2097_3_2_0,625.063596762,568.157049685
2097_3_2_1,1877.36226173,1707.43833964
2097_3_2_2,1925.01703476,1779.47063824
2097_3_2_3,807.082653009,838.992220877
2097_3_3,2545.54887814,2733.93839063
2100_1,13527.1692009,11612.8375424
2100_2,4473.55358374,3638.07290384
3415_0_0,19674.9352106,18175.847803
3415_0_1_0,8109.36622285,6806.07069549
3415_0_1_1_0,7375.92271642,6450.74565366
3415_0_1_1_1,350.631103491,291.076529753
3415_0_1_1_2,6051.19747678,4705.36298004
3415_0_1_1_3,4599.39431588,3717.59308233
3415_0_1_2,28599.6279021,23769.4294445
3415_0_1_3,12427.0288313,10947.8742543
3415_0_2,28284.4643285,25362.609786
3415_0_3,21289.0875868,21488.9062257
3415_1,149305.249625,143338.749973
3415_2,23154.1838889,21207.0167264
3415_3_0,25827.6411437,33103.1079004
3415_3_1,8829.31656138,8331.44279962
3415_3_2,10130.6745062,9825.09722073
3415_3_3,9288.97345583,9498.11502278
3416,44382.7883964,36235.155172
3417_0_0,24722.7482273,26602.4275027
3417_0_1,9017.1661024,12241.3868576
3417_0_2,22527.3529772,32161.3801586
3417_0_3,23686.9036383,25784.7992058
3417_1,85052.2709832,80530.6899751
3417_2_0_0,27975.1872086,27412.8190225
3417_2_0_1,12173.353544,10318.1787463
3417_2_0_2,9377.05711872,9014.41265758
3417_2_0_3,18007.5266472,19560.9292977
3417_2_1_0,20717.042932,17226.3959015
3417_2_1_1,12647.8566979,11400.7689377
3417_2_1_2,9440.66231229,8064.26150437
3417_2_1_3,18497.7204899,16181.6505123
3417_2_2,18361.9436272,16677.8361489
3417_2_3,20609.9623414,21789.8939885
3417_3_0,10385.3520729,9635.41378477
3417_3_1_0,1800.862567,2048.57400284
3417_3_1_1,37811.2284674,46580.1408957
3417_3_1_2,6023.94947806,6919.04532759
3417_3_1_3,6290.26388223,7850.44060194
3417_3_2,25176.2248684,32310.969266
3417_3_3,20445.2012715,19316.4626697
3418_0_0,51938.9974275,49277.2483394
3418_0_1_0,7387.0869611,8029.1776285
3418_0_1_1,4387.60670219,4337.17651623
3418_0_1_2,6046.63834294,5125.6566481
3418_0_1_3,9229.62813725,9989.70200731
3418_0_2_0,18308.7323658,16718.2570876
3418_0_2_1,14144.2093401,12500.6417302
3418_0_2_2,5786.88659343,5452.96918044
3418_0_2_3,20214.1882397,19121.4571292
3418_0_3_0,13810.9422157,12534.9393741
3418_0_3_1,36896.750453,37214.8000606
3418_0_3_2,19749.3844032,18221.0261192
3418_0_3_3,9172.38446395,8459.2127055
3418_1_0,8224.84817837,8137.28775533
3418_1_1,18616.2469902,19396.0439799
3418_1_2,92328.450403,93799.1449068
3418_1_3,27637.0341371,25926.0265487
3418_2_0,17199.9472656,16488.8004321
3418_2_1,14840.9994721,14314.7251871
3418_2_2,19153.3618047,18679.1946992
3418_2_3,24354.3918729,23725.591967
3418_3_0,25566.5275301,24256.567268
3418_3_1,48445.1807733,44350.2935117
3418_3_2,59628.6591536,57345.1642242
3418_3_3,18301.7509912,16182.3051229
3419_0_0_0_0,5710.68281306,9403.63897205
3419_0_0_0_1,7534.56785786,15332.0952088
3419_0_0_0_2,8537.95180855,11600.1347068
3419_0_0_0_3,8077.11059393,9823.59435558
3419_0_0_1_0,18109.708117,21494.2171828
3419_0_0_1_1,13160.9188802,15972.8257999
3419_0_0_1_2,4399.55880703,5224.30923952
3419_0_0_1_3,2420.6492122,3082.70974383
3419_0_0_2,14550.1158093,14835.2470062
3419_0_0_3,33364.738305,32767.9420111
3419_0_1_0_0,9908.09968839,11855.6945785
3419_0_1_0_1,22406.5569242,24051.6386
3419_0_1_0_2,18144.5853888,17461.1161316
3419_0_1_0_3,7014.84971892,7413.56299823
3419_0_1_1_0,12641.3467686,11357.4999415
3419_0_1_1_1,20442.8517881,20609.1511488
3419_0_1_1_2,20403.0667705,27364.4926268
3419_0_1_1_3,33978.2743686,29221.3448418
3419_0_1_2_0,19293.3925346,20756.9207247
3419_0_1_2_1,15877.5131998,20989.5152418
3419_0_1_2_2,12766.6409606,11266.0090372
3419_0_1_2_3,23172.8697343,19362.2767149
3419_0_1_3_0,10417.037067,10066.4101404
3419_0_1_3_1,6700.57885789,6383.36185525
3419_0_1_3_2,7762.79846124,6463.75969057
3419_0_1_3_3,4997.44938006,4326.04263348
3419_0_2_0_0,6466.37720852,5615.93330379
3419_0_2_0_1,6211.69891241,4936.37340553
3419_0_2_0_2,6753.06843917,5547.76254847
3419_0_2_0_3,11959.8120967,9988.69588463
3419_0_2_1_0,13020.6886159,10552.5827234
3419_0_2_1_1,8546.8272692,7531.87632448
3419_0_2_1_2,11988.0812723,9816.76176877
3419_0_2_1_3,16860.3272904,13511.7066246
3419_0_2_2,45317.3340295,38302.8783524
3419_0_2_3,24113.2288576,21684.8722052
3419_0_3_0,17090.9675412,17280.8273443
3419_0_3_1_0,9343.49020158,9045.77465376
3419_0_3_1_1,5147.1771782,4287.80697552
3419_0_3_1_2,6295.09060303,4912.40884644
3419_0_3_1_3,9443.37925018,8133.80328052
3419_0_3_2,35875.503455,31248.3858755
3419_0_3_3,15458.2001466,16124.020451
3419_1_0_0_0,25412.0185665,30620.5560851
3419_1_0_0_1,13124.4071465,14332.9583567
3419_1_0_0_2,10443.3564997,9348.67857283
3419_1_0_0_3,14518.734603,18428.5440743
3419_1_0_1,63152.0779062,55708.1428935
3419_1_0_2,19742.82426,17741.2500469
3419_1_0_3_0,6907.74987284,7746.42370666
3419_1_0_3_1,9859.84347565,8433.0012275
3419_1_0_3_2,6704.29646714,6498.76596584
3419_1_0_3_3,2203.81204077,2728.26855497
3419_1_1_0,49653.6474817,46720.6315782
3419_1_1_1,41632.6440545,35616.4509946
3419_1_1_2,14385.4503501,13245.7978928
3419_1_1_3,11636.9295443,10605.5162143
3419_1_2_0,26269.2609205,23364.0143767
3419_1_2_1,23272.8792499,22257.45315
3419_1_2_2,14647.8301552,12965.3563837
3419_1_2_3,36852.7883154,31209.0799021
3419_1_3_0,16723.068918,19872.8526554
3419_1_3_1,18229.7575768,18901.6679896
3419_1_3_2,29491.4842687,32924.9405112
3419_1_3_3,11203.639365,11167.5129259
3419_2_0_0,12547.30929,12581.2900662
3419_2_0_1,18880.698099,18653.8978365
3419_2_0_2,17927.8445642,16254.2675272
3419_2_0_3,10172.2725766,10049.9562091
3419_2_1_0,8875.50079389,7927.13534752
3419_2_1_1,16201.254826,14135.7692277
3419_2_1_2,4742.79356926,4602.31122882
3419_2_1_3,7990.96187582,6967.32812952
3419_2_2,31196.534083,26171.9693332
3419_2_3_0,15579.9337815,13723.3112824
3419_2_3_1,20614.8597405,18498.4026017
3419_2_3_2,14449.389819,13341.5267017
3419_2_3_3,14880.6445234,13775.0601292
3419_3_0_0,10251.7522526,10850.8829893
3419_3_0_1,12465.3560586,11618.1556035
3419_3_0_2,7879.26640592,7371.29504551
3419_3_0_3,6508.45790889,7130.54250473
3419_3_1_0,7423.7162245,6794.27831071
3419_3_1_1,15063.1830292,13851.9054043
3419_3_1_2,8797.27825332,8184.84099228
3419_3_1_3,7453.07846923,6913.61027045
3419_3_2,30290.0092774,28544.5198988
3419_3_3,14596.1099678,14589.0084769
3420_0_0_0_0,21272.981623,20890.949472
3420_0_0_0_1,25060.1722288,22935.3710544
3420_0_0_0_2,46858.6639974,54794.5711934
3420_0_0_0_3,37671.5028974,32263.4316686
3420_0_0_1_0_0,15835.148534,14250.6302525
3420_0_0_1_0_1,12842.4369666,11671.0425421
3420_0_0_1_0_2,18610.8289686,17172.405315
3420_0_0_1_0_3,22610.7732449,19708.1678484
3420_0_0_1_1,56234.167061,50004.8474593
3420_0_0_1_2_0,12212.4300352,14333.1950962
3420_0_0_1_2_1,15013.2159449,13733.1978231
3420_0_0_1_2_2,3449.53416041,3376.02808914
3420_0_0_1_2_3,2855.48025804,3808.84626098
3420_0_0_1_3,41518.060502,43407.2281756
3420_0_0_2_0_0,12427.3066808,14715.325681
3420_0_0_2_0_1,15336.0085924,14548.2914881
3420_0_0_2_0_2,28864.3954818,25733.488763
3420_0_0_2_0_3,14480.7231185,12368.8662564
3420_0_0_2_1_0,12749.3085917,11517.7511096
3420_0_0_2_1_1,8893.315583,8177.53104692
3420_0_0_2_1_2,14074.0050088,13727.4226631
3420_0_0_2_1_3,31182.506505,27792.1789378
3420_0_0_2_2_0,28673.3748662,29885.6480409
3420_0_0_2_2_1,41018.8091125,48223.0748167
3420_0_0_2_2_2,33430.0690225,46376.8856494
3420_0_0_2_2_3,34247.9683584,41608.717274
3420_0_0_2_3_0,10927.0986137,10131.2923955
3420_0_0_2_3_1,15668.7839141,20211.6818278
3420_0_0_2_3_2,16998.4478958,26996.0471978
3420_0_0_2_3_3,4091.19214364,4676.01478208
3420_0_0_3_0,36014.1468811,29189.3892112
3420_0_0_3_1,39930.3027537,37599.6781044
3420_0_0_3_2_0,2278.02690802,2465.84608934
3420_0_0_3_2_1,2984.66341241,2931.65518016
3420_0_0_3_2_2,3443.50293868,4551.6673334
3420_0_0_3_2_3,4958.46906138,6365.74938712
3420_0_0_3_3,26237.1761976,23737.1961345
3420_0_1_0_0_0,10294.3919781,10821.248732
3420_0_1_0_0_1,7091.32545008,10149.0827935
3420_0_1_0_0_2,13481.4701532,14478.2154241
3420_0_1_0_0_3,16710.3546843,15906.8966982
3420_0_1_0_1,25312.1930123,26456.5085174
3420_0_1_0_2,28148.5091652,29585.3344089
3420_0_1_0_3_0,21607.9335547,21903.0030704
3420_0_1_0_3_1,11191.6301574,14266.8795727
3420_0_1_0_3_2,14371.6570653,14808.5966687
3420_0_1_0_3_3,20192.5233387,20001.683933
3420_0_1_1_0,24506.909762,22337.9215525
3420_0_1_1_1,14929.7574934,13626.3121495
3420_0_1_1_2,15232.2621219,13855.13683
3420_0_1_1_3,28665.3971822,25528.4732588
3420_0_1_2_0,33439.1917786,35255.6310299
3420_0_1_2_1,23974.999347,21588.1151868
3420_0_1_2_2,74651.482556,67803.5329541
3420_0_1_2_3_0,19053.848822,18790.6660386
3420_0_1_2_3_1,20847.4445366,19120.2069689
3420_0_1_2_3_2,20842.1805093,17591.7649156
3420_0_1_2_3_3,33660.7992907,29265.0569286
3420_0_1_3_0_0,14422.1051907,13283.6730199
3420_0_1_3_0_1,21687.1906782,20125.6186893
3420_0_1_3_0_2,23381.742753,22395.7083105
3420_0_1_3_0_3,14898.0320334,13336.3986053
3420_0_1_3_1,23972.9755644,25252.1331152
3420_0_1_3_2_0,3746.33825052,3523.62117146
3420_0_1_3_2_1,2561.20654403,2421.90453094
3420_0_1_3_2_2,11031.2434722,10073.4015337
3420_0_1_3_2_3,3750.9342758,3561.55101462
3420_0_1_3_3_0,13367.8378578,12865.0790064
3420_0_1_3_3_1,17792.7638001,16869.425344
3420_0_1_3_3_2,22551.1009894,22757.7277309
3420_0_1_3_3_3_0,2156.68770003,3964.63835638
3420_0_1_3_3_3_1,5128.72790602,6192.75941363
3420_0_1_3_3_3_2,7119.86506837,9985.59503782
3420_0_1_3_3_3_3,6720.20444036,13439.9103199
3420_0_2_0_0_0_0,7340.85982708,12242.3765627
3420_0_2_0_0_0_1,4752.27693577,7769.07618095
3420_0_2_0_0_0_2,8980.59485643,15884.3143526
3420_0_2_0_0_0_3,8655.43566838,13938.123807
3420_0_2_0_0_1,15188.4894652,19513.2762725
3420_0_2_0_0_2,15168.4883996,20196.1713357
3420_0_2_0_0_3,23849.00503,34690.0626413
3420_0_2_0_1_0,4953.21678548,5225.16791161
3420_0_2_0_1_1,21133.0247542,19671.1513749
3420_0_2_0_1_2,12129.8243202,13338.3734042
3420_0_2_0_1_3,13285.1360719,14606.2047754
3420_0_2_0_2_0,29518.1399585,33360.2184659
3420_0_2_0_2_1,17811.1028518,20716.5318827
3420_0_2_0_2_2,16983.7409451,21034.8069207
3420_0_2_0_2_3,18490.9983735,25574.6603799
3420_0_2_0_3_0,32519.4555836,41558.6798983
3420_0_2_0_3_1,28208.0494149,34564.3088329
3420_0_2_0_3_2,26867.3488085,40338.3534443
3420_0_2_0_3_3_0,8682.61476022,15033.3220173
3420_0_2_0_3_3_1,14172.6860759,22071.968788
3420_0_2_0_3_3_2,10731.0023601,22943.7447324
3420_0_2_0_3_3_3,7891.68257844,15497.5556084
3420_0_2_1_0_0,27356.0257887,23332.0309249
3420_0_2_1_0_1,26244.2203559,25137.0078097
3420_0_2_1_0_2,22807.2202081,24108.4622416
3420_0_2_1_0_3,24666.3768092,28259.2997972
3420_0_2_1_1_0,14052.8295518,17064.476638
3420_0_2_1_1_1,13576.8776908,12700.4004444
3420_0_2_1_1_2,11185.9025344,9845.47238738
3420_0_2_1_1_3,22837.1048592,21476.0381119
3420_0_2_1_2_0,24788.468701,22926.0263341
3420_0_2_1_2_1,13193.4370235,12620.4262741
3420_0_2_1_2_2,10986.2682542,13093.5029028
3420_0_2_1_2_3,13430.8692366,15395.1021286
3420_0_2_1_3_0,19817.7457359,23723.5326134
3420_0_2_1_3_1,18055.1422168,19799.7771959
3420_0_2_1_3_2,19521.8174137,24537.6017859
3420_0_2_1_3_3,18820.6019374,22125.2066389
3420_0_2_2_0_0,12958.6135524,18183.8230637
3420_0_2_2_0_1,19141.0816118,24106.7009239
3420_0_2_2_0_2,10564.6244879,10861.7205407
3420_0_2_2_0_3,6455.36650103,8219.73850835
3420_0_2_2_1_0,17381.9187794,20182.7404824
3420_0_2_2_1_1,14412.4569004,14593.8392152
3420_0_2_2_1_2,15362.9197888,14354.4579445
3420_0_2_2_1_3,16038.7601929,15039.3867521
3420_0_2_2_2,58625.4145061,72192.1505712
3420_0_2_2_3,31543.0148583,40591.5515631
3420_0_2_3_0_0_0,10188.1506185,17279.794245
3420_0_2_3_0_0_1,8808.67556613,18204.0738008
3420_0_2_3_0_0_2,5211.0991303,9453.70111616
3420_0_2_3_0_0_3,9304.50643983,13509.1430793
3420_0_2_3_0_1,15644.7689913,30000.1992933
3420_0_2_3_0_2,27610.1528406,42112.0594162
3420_0_2_3_0_3,26397.5752686,55507.1157231
3420_0_2_3_1_0,13375.0530016,24396.7358021
3420_0_2_3_1_1,9506.91572885,13053.1385176
3420_0_2_3_1_2,9541.92949947,17955.3557717
3420_0_2_3_1_3,8427.2182443,14933.3885456
3420_0_2_3_2,63848.1491213,81832.9760399
3420_0_2_3_3_0_0,14160.4297574,25803.2108403
3420_0_2_3_3_0_1,8163.05583334,12049.388658
3420_0_2_3_3_0_2,10823.8079727,13983.6056762
3420_0_2_3_3_0_3,8275.66900445,14382.446315
3420_0_2_3_3_1,19903.4408687,26068.4262861
3420_0_2_3_3_2,45996.8864612,71059.7862369
3420_0_2_3_3_3,37735.8892341,56508.1502686
3420_0_3_0_0_0,11273.5806386,10601.647207
3420_0_3_0_0_1,17663.5150547,15649.349726
3420_0_3_0_0_2,15973.4602768,16604.8878192
3420_0_3_0_0_3,23082.7710999,22506.2774803
3420_0_3_0_1_0,12984.2119982,16264.2125825
3420_0_3_0_1_1,6579.2900363,8565.50564877
3420_0_3_0_1_2,14954.7053273,17716.9577835
3420_0_3_0_1_3,14705.2834396,17204.1426906
3420_0_3_0_2,44337.5380722,52457.268396
3420_0_3_0_3,47192.8126922,52534.2418504
3420_0_3_1_0_0,15638.3570689,17947.5685691
3420_0_3_1_0_1,28828.8169751,41016.4735328
3420_0_3_1_0_2,19293.7195789,31520.5735082
3420_0_3_1_0_3,15384.8607728,16805.0279382
3420_0_3_1_1_0,26908.6255114,40283.0947738
3420_0_3_1_1_1_0,9227.56918553,12941.8086689
3420_0_3_1_1_1_1,9545.27373917,14371.8073452
3420_0_3_1_1_1_2,9738.41227491,12970.7441293
3420_0_3_1_1_1_3,8612.10661773,11231.4339694
3420_0_3_1_1_2,33195.9959751,48064.0932372
3420_0_3_1_1_3,25140.9932957,44871.5528466
3420_0_3_1_2_0,18164.5230888,35412.3715533
3420_0_3_1_2_1,27216.3566557,41913.593269
3420_0_3_1_2_2,37515.7560741,57804.4656305
3420_0_3_1_2_3,10474.7217782,19691.2369007
3420_0_3_1_3_0,14829.4679147,18542.3057181
3420_0_3_1_3_1,10478.4835528,19299.0832503
3420_0_3_1_3_2,9572.95568005,13295.8597606
3420_0_3_1_3_3,20973.5073974,22903.3363739
3420_0_3_2_0_0,23813.4101031,26227.7854636
3420_0_3_2_0_1,12563.6860519,16050.7554817
3420_0_3_2_0_2,9446.42230973,15431.6882992
3420_0_3_2_0_3,16976.1670379,24401.7712129
3420_0_3_2_1_0,4968.50207811,8190.06047711
3420_0_3_2_1_1,29272.6022498,45569.5193823
3420_0_3_2_1_2_0,7025.65631731,12521.8775622
3420_0_3_2_1_2_1,8075.50618328,14427.4846975
3420_0_3_2_1_2_2,6167.03356724,16342.0623402
3420_0_3_2_1_2_3,5461.00696387,12485.027012
3420_0_3_2_1_3,13528.6678034,25061.4202022
3420_0_3_2_2_0_0,6544.22501484,13266.655174
3420_0_3_2_2_0_1,8129.36554109,16304.9486281
3420_0_3_2_2_0_2,6690.77329462,10450.9987571
3420_0_3_2_2_0_3,4957.84902675,7820.4857351
3420_0_3_2_2_1_0,7476.54450877,16369.5197923
3420_0_3_2_2_1_1,8281.8469885,18238.391254
3420_0_3_2_2_1_2,9535.55333659,18155.7690642
3420_0_3_2_2_1_3,9238.82917597,18185.453594
3420_0_3_2_2_2,32750.3975301,59870.1138644
3420_0_3_2_2_3,26462.1884794,40234.5325883
3420_0_3_2_3_0,20059.4602682,26449.5680074
3420_0_3_2_3_1,23757.1679601,35587.2659362
3420_0_3_2_3_2,17379.131137,21946.9604183
3420_0_3_2_3_3,24956.4838231,25718.3680156
3420_0_3_3_0,10314.5045208,14304.5603184
3420_0_3_3_1,32782.9580805,44031.8557222
3420_0_3_3_2,12307.4084097,14006.4082315
3420_0_3_3_3,17755.2421829,19708.4420029
3420_1_0_0_0,12935.5070423,11654.3704135
3420_1_0_0_1,7773.70014565,8510.84698998
3420_1_0_0_2,18174.626442,16402.7360588
3420_1_0_0_3,26297.0441598,22832.2398679
3420_1_0_1_0,4025.90940793,6294.57894112
3420_1_0_1_1,6314.35131055,14203.3681686
3420_1_0_1_2,5327.55074348,12987.732106
3420_1_0_1_3,9154.58697536,14765.7776653
3420_1_0_2_0,14506.8534298,19527.5215432
3420_1_0_2_1,19423.5064607,20245.9641954
3420_1_0_2_2,45054.0674567,41181.0024372
3420_1_0_2_3,20668.5318303,28466.9472184
3420_1_0_3_0,21928.6485633,19623.6116232
3420_1_0_3_1,30402.1638697,28097.3673556
3420_1_0_3_2,18680.770756,23312.6301551
3420_1_0_3_3,43107.2327219,39857.7660326
3420_1_1_0,51054.6274888,50892.6471542
3420_1_1_1,14830.9326788,12671.8112574
3420_1_1_2,41294.5292291,36459.2475959
3420_1_1_3_0,26623.8574805,23442.3964761
3420_1_1_3_1,13903.4756976,12183.2879073
3420_1_1_3_2,14025.501713,13934.8955527
3420_1_1_3_3,34201.7084922,35095.1157512
3420_1_2_0,51866.6523285,60793.588022
3420_1_2_1,14975.829379,18052.8287486
3420_1_2_2,23251.6085707,22818.5760976
3420_1_2_3,85755.0295545,102290.034121
3420_1_3_0_0,50909.2181756,50595.4827133
3420_1_3_0_1,32682.81174,40030.908932
3420_1_3_0_2,26136.584295,45003.7848435
3420_1_3_0_3,59511.8625213,69418.9947378
3420_1_3_1_0,26512.392886,39087.8862916
3420_1_3_1_1,30950.9279896,41199.751746
3420_1_3_1_2,30587.2558597,35419.0708067
3420_1_3_1_3_0,5774.85106291,15152.5096047
3420_1_3_1_3_1,6767.20072311,11294.4152877
3420_1_3_1_3_2,5732.51523665,10801.1133278
3420_1_3_1_3_3,7370.16138696,18662.0456053
3420_1_3_2_0,39328.0836232,49285.6044967
3420_1_3_2_1,33433.4627583,34774.5458997
3420_1_3_2_2,13383.3449351,14092.1781429
3420_1_3_2_3,27530.8360271,31094.4819878
3420_1_3_3_0_0,21346.8718892,26110.4898149
3420_1_3_3_0_1,10531.0727484,11577.615392
3420_1_3_3_0_2,14056.2578528,15590.2344925
3420_1_3_3_0_3,11957.8705941,13839.7464408
3420_1_3_3_1,40614.9173815,45807.122429
3420_1_3_3_2,20771.172562,23368.8236496
3420_1_3_3_3,38711.3110525,44654.2870279
3420_2_0_0_0,15132.6711643,16027.5699622
3420_2_0_0_1,36585.9619182,33597.0918603
3420_2_0_0_2,9953.6269466,10047.9405728
3420_2_0_0_3,5737.75351296,5759.76599383
3420_2_0_1,45330.4953191,46517.699029
3420_2_0_2,11710.8231163,12019.7935246
3420_2_0_3_0,4922.28238556,4824.56153092
3420_2_0_3_1,4299.36462052,4095.17920394
3420_2_0_3_2,15989.5849869,14837.1763042
3420_2_0_3_3,17178.7438412,15569.4798104
3420_2_1,60034.4601339,58150.700716
3420_2_2_0,9254.4845659,9653.15247603
3420_2_2_1,15101.0274539,14155.2557422
3420_2_2_2,15358.0102752,12480.8217353
3420_2_2_3,41582.648288,45425.0151276
3420_2_3_0_0,19355.2922418,18074.8605177
3420_2_3_0_1,21714.789511,18580.5555718
3420_2_3_0_2,8738.70485182,8906.54819836
3420_2_3_0_3,22233.3726382,27946.5627919
3420_2_3_1_0,7360.77370626,8492.88089009
3420_2_3_1_1,2488.12442722,2802.08757563
3420_2_3_1_2,8251.77030414,10735.2208948
3420_2_3_1_3,7287.00012368,9133.90268328
3420_2_3_2_0,16315.9209071,18489.9587133
3420_2_3_2_1,5460.62259797,7110.1446046
3420_2_3_2_2,19984.7509435,19442.4833791
3420_2_3_2_3,7132.8957797,7686.9718597
3420_2_3_3_0,18183.2559203,21357.904044
3420_2_3_3_1,19427.5694178,22351.5941823
3420_2_3_3_2,29593.4529598,37382.2211775
3420_2_3_3_3,29878.259781,36888.1921931
3420_3_0_0_0,48651.2483215,43200.2732296
3420_3_0_0_1,83248.6703418,82043.4063166
3420_3_0_0_2_0,18235.9598027,16697.1559308
3420_3_0_0_2_1,31574.7114909,31002.3949648
3420_3_0_0_2_2,14413.888809,14596.1593655
3420_3_0_0_2_3,24870.5855597,22346.6812469
3420_3_0_0_3_0,21595.3697024,18589.5470831
3420_3_0_0_3_1,13355.2490846,11384.8078856
3420_3_0_0_3_2,21031.8344988,18210.6257406
3420_3_0_0_3_3,21347.688437,18475.0597365
3420_3_0_1_0_0,34923.7659522,33709.3956047
3420_3_0_1_0_1,20267.5224222,23055.9061178
3420_3_0_1_0_2,17274.8997209,20759.4318267
3420_3_0_1_0_3,23442.9744281,24610.8385512
3420_3_0_1_1_0,16319.7352062,27409.818699
3420_3_0_1_1_1,13971.8626411,31881.1312382
3420_3_0_1_1_2,16630.4572469,37207.5839851
3420_3_0_1_1_3,26432.5150864,32755.9413871
3420_3_0_1_2_0,31173.4536638,31965.0641098
3420_3_0_1_2_1,14902.9421915,24557.335526
3420_3_0_1_2_2,6383.66286222,7821.33005116
3420_3_0_1_2_3,16115.5388739,17475.6733911
3420_3_0_1_3_0,20150.4068179,22469.3639093
3420_3_0_1_3_1,25914.3155285,30525.5676402
3420_3_0_1_3_2,14087.472032,15222.6287649
3420_3_0_1_3_3,17023.8223051,19837.9484932
3420_3_0_2_0,31640.1139193,36570.870247
3420_3_0_2_1_0,16479.0103218,18698.6439936
3420_3_0_2_1_1,18424.7823793,21986.1606429
3420_3_0_2_1_2,15197.5687389,16119.7141539
3420_3_0_2_1_3,15153.3572413,14795.8828972
3420_3_0_2_2_0,14854.3781279,13821.3725168
3420_3_0_2_2_1,7537.04721872,7180.35221824
3420_3_0_2_2_2,12037.3281073,11171.5248248
3420_3_0_2_2_3,16709.8093916,15800.8907054
3420_3_0_2_3,41049.0568143,45207.6502974
3420_3_0_3_0_0,17878.3153383,15848.6005498
3420_3_0_3_0_1,17798.6531044,15705.411852
3420_3_0_3_0_2,16773.2115751,15025.7109705
3420_3_0_3_0_3,9541.74899185,8687.01833852
3420_3_0_3_1_0,16596.2278036,14763.4398887
3420_3_0_3_1_1,6847.02155205,6025.14730096
3420_3_0_3_1_2,6196.39638309,5749.82356417
3420_3_0_3_1_3,6311.02169874,5718.29735394
3420_3_0_3_2,24242.6540746,23995.3164396
3420_3_0_3_3,57865.2972655,55023.5267494
3420_3_1_0_0_0,14848.4879422,29896.7966924
3420_3_1_0_0_1,27019.5296388,33039.8567384
3420_3_1_0_0_2,18897.3302877,19335.3977468
3420_3_1_0_0_3,13722.001911,23530.8771038
3420_3_1_0_1_0,21859.122055,24692.7555922
3420_3_1_0_1_1,26063.1658074,26175.3990285
3420_3_1_0_1_2,28140.3929183,27687.2087967
3420_3_1_0_1_3,14936.9064585,15129.1023906
3420_3_1_0_2_0,20202.2956866,20255.0126836
3420_3_1_0_2_1,30341.3944603,27859.2227025
3420_3_1_0_2_2,24568.0434741,22715.1818813
3420_3_1_0_2_3,19166.8455655,18246.8818986
3420_3_1_0_3,48749.5506455,58806.7990944
3420_3_1_1_0,83915.1114779,78508.1112478
3420_3_1_1_1,16876.4757014,18009.5981337
3420_3_1_1_2,7295.03115461,6766.32797844
3420_3_1_1_3_0,30416.0858832,28439.2647793
3420_3_1_1_3_1,22963.1847538,20925.4153892
3420_3_1_1_3_2,28224.5727138,26202.1284371
3420_3_1_1_3_3,39018.0790073,37132.9488123
3420_3_1_2_0,63238.8757975,58174.0018281
3420_3_1_2_1,20341.3987669,19374.4969061
3420_3_1_2_2,46540.8522554,41482.0254315
3420_3_1_2_3_0,10350.4726895,8326.6947056
3420_3_1_2_3_1,10303.9950621,8993.60467792
3420_3_1_2_3_2,8075.01264332,7672.14018563
3420_3_1_2_3_3,10520.2400304,9865.52971204
3420_3_1_3_0_0,15256.1898693,16197.2145238
3420_3_1_3_0_1,18458.2666748,19051.0840349
3420_3_1_3_0_2,25329.0399915,23368.9509173
3420_3_1_3_0_3,12902.6529288,12131.904296
3420_3_1_3_1_0,16743.303066,15691.446015
3420_3_1_3_1_1,21584.718708,21422.1325823
3420_3_1_3_1_2,23714.9829684,21753.4515713
3420_3_1_3_1_3,23874.987192,21733.911703
3420_3_1_3_2,45315.5866078,41579.5031366
3420_3_1_3_3_0,9450.0970359,8344.65657161
3420_3_1_3_3_1,16379.8955388,15123.6815293
3420_3_1_3_3_2,24905.1508331,22785.447451
3420_3_1_3_3_3,10294.6646827,8964.79033202
3420_3_2_0_0_0,15656.6325672,12893.8189206
3420_3_2_0_0_1,24033.389382,21621.7098433
3420_3_2_0_0_2,20510.676525,18365.3581211
3420_3_2_0_0_3,17425.9675651,15042.6064608
3420_3_2_0_1,61365.1052685,55489.2949241
3420_3_2_0_2,67053.9695029,57835.8485497
3420_3_2_0_3_0,6932.05220008,6319.80789948
3420_3_2_0_3_1,12675.5764813,12068.2780568
3420_3_2_0_3_2,16047.5314199,16341.8795702
3420_3_2_0_3_3,5492.73722857,5201.63666669
3420_3_2_1_0,26187.0977889,23140.0472906
3420_3_2_1_1,85148.6205043,81780.4047461
3420_3_2_1_2,52359.5145168,51094.8146965
3420_3_2_1_3,51069.4548057,42868.6213165
3420_3_2_2_0,25035.3779576,23336.4313041
3420_3_2_2_1,30554.451707,28926.0011398
3420_3_2_2_2,36000.5108245,36515.4432284
3420_3_2_2_3,24596.1506914,22776.7185394
3420_3_2_3_0,18877.3075379,18921.6915994
3420_3_2_3_1,27436.0785685,24468.892137
3420_3_2_3_2,5088.65599082,4645.46933886
3420_3_2_3_3,11049.8650188,12380.5360149
3420_3_3_0_0,32869.9781876,29292.8439056
3420_3_3_0_1,23333.3271132,22017.5687769
3420_3_3_0_2,19240.253748,20622.1626658
3420_3_3_0_3,17436.9121959,15158.7693047
3420_3_3_1_0,28552.1760713,27873.6968525
3420_3_3_1_1,39894.0144146,38149.19499
3420_3_3_1_2,29128.5820789,28014.0983702
3420_3_3_1_3,18937.2016827,19734.9127207
3420_3_3_2_0,7093.59594919,8349.99904113
3420_3_3_2_1,18283.56567,18722.5345128
3420_3_3_2_2,10595.3646504,10870.0314457
3420_3_3_2_3,10550.9107795,11869.957696
3420_3_3_3_0,20576.4776988,17957.5957075
3420_3_3_3_1,10108.7125353,13220.0429094
3420_3_3_3_2,7076.35336406,17483.8022527
3420_3_3_3_3,15781.4117404,20057.1380612
3422,526153.886951,479584.980996
3423_0_0,18329.7490217,15852.7484604
3423_0_1,18546.9497468,20220.886658
3423_0_2,14171.0368537,14857.1079292
3423_0_3,12501.4452383,11132.3874162
3423_1_0,19155.3762782,19504.941721
3423_1_1_0,11669.7158679,10133.2591052
3423_1_1_1,5975.87733656,5860.86527467
3423_1_1_2,38003.6478287,43594.8834757
3423_1_1_3,18328.1915305,22867.7682958
3423_1_2_0,30498.6273621,42626.5516972
3423_1_2_1,28677.0856586,41442.7702848
3423_1_2_2,6023.25128834,6188.93898895
3423_1_2_3,14655.7163694,16425.4270365
3423_1_3,18785.6427714,21369.4502051
3423_2_0_0,4297.26897315,4870.55488611
3423_2_0_1,6590.06996365,7577.89518866
3423_2_0_2,9044.72687,10978.2206502
3423_2_0_3,6909.16955668,7384.89718927
3423_2_1_0,17054.6606873,19832.5992729
3423_2_1_1,22875.9226214,19174.2870708
3423_2_1_2_0,17494.0769778,14098.4154665
3423_2_1_2_1,12683.4661211,11881.3481089
3423_2_1_2_2,16767.3933575,15128.3969138
3423_2_1_2_3,13492.3682534,11365.2447043
3423_2_1_3,13671.8260957,16163.6490878
3423_2_2_0,10404.5317304,8977.03786626
3423_2_2_1_0,17946.9121672,15492.9167886
3423_2_2_1_1,20833.7984735,17603.0816136
3423_2_2_1_2,16211.5076898,13267.6422458
3423_2_2_1_3,19146.3039921,16421.9364786
3423_2_2_2,25463.3721443,20778.3554781
3423_2_2_3,17929.798687,15883.7455864
3423_2_3_0,13891.650309,15339.6044898
3423_2_3_1,12286.0952377,12227.5889903
3423_2_3_2,21122.9194859,24466.7581314
3423_2_3_3,20457.8929122,23652.8689533
3423_3_0,32960.093708,25977.9394057
3423_3_1_0,3387.31451567,3370.84076426
3423_3_1_1,2657.08577641,2938.79344617
3423_3_1_2,18276.2901743,15817.3740179
3423_3_1_3,5532.16992081,4730.30108594
3423_3_2_0,16210.9635448,17660.2331494
3423_3_2_1,30204.7770865,31191.6043747
3423_3_2_2,23678.2642608,26564.0369576
3423_3_2_3_0,30827.2356531,26297.5728707
3423_3_2_3_1,7756.12185382,9495.61466613
3423_3_2_3_2,9276.66506027,11124.2312984
3423_3_2_3_3,11865.9877565,12585.2483841
3423_3_3_0,45635.693079,34583.4688698
3423_3_3_1,46505.5556326,39568.7510878
3423_3_3_2_0,14223.1053082,12112.7056219
3423_3_3_2_1,22790.6997091,19187.302153
3423_3_3_2_2,35217.1140595,32103.8741793
3423_3_3_2_3,15102.6438091,13426.404779
3423_3_3_3_0,15704.8509493,12920.2487666
3423_3_3_3_1,6366.41713552,5273.12751211
3423_3_3_3_2,6435.39215919,5722.284289
3423_3_3_3_3,3480.27444346,3481.08193671
3424,169157.013418,151074.013387
3425_0,17764.1152138,16000.7382762
3425_1_0,7389.26240892,6365.76189437
3425_1_1,27180.1204041,22681.7868324
3425_1_2_0,12055.5324859,10535.1246583
3425_1_2_1,20832.6723403,18573.4508597
3425_1_2_2,9124.14169967,8052.59369641
3425_1_2_3,13780.9285147,12739.1742356
3425_1_3,8725.87701031,7810.38122019
3425_2_0,10232.8616359,9195.92103791
3425_2_1,15496.919671,13421.1501154
3425_2_2,4448.12755655,3897.4076631
3425_2_3,5145.29770821,4460.75727802
3425_3_0,20349.7995859,19226.5513659
3425_3_1,10547.7058942,9812.32123629
3425_3_2,14999.1490037,13866.8418928
3425_3_3,14603.5173506,13609.5636305
3426_0_0,10483.5886677,9573.44619955
3426_0_1,11106.1162494,9949.10944237
3426_0_2,37250.6020306,32050.0750795
3426_0_3,12933.2012494,11537.9342843
3426_1_0,7014.84770722,5699.50255093
3426_1_1,3094.09207071,2545.71251165
3426_1_2,6069.44635013,5330.2960199
3426_1_3,11109.6727798,10823.6952651
3426_2_0,35447.7388874,31558.8926315
3426_2_1,14073.5621507,13278.7214847
3426_2_2_0,12756.456806,12928.222444
3426_2_2_1,12773.7107103,10038.8311162
3426_2_2_2,47397.6745692,40826.3002403
3426_2_2_3,26992.7420545,24691.9619803
3426_2_3,63544.0907184,58448.4223032
3426_3_0,12470.527431,10264.9318919
3426_3_1,31131.8894983,28068.7957567
3426_3_2_0,8057.18970851,6964.58102683
3426_3_2_1,17001.5765498,15377.6588907
3426_3_2_2,16801.8624819,17925.721866
3426_3_2_3,20267.5625508,16614.1287692
3426_3_3,17820.6866375,14662.465574
3427_0,29694.4715712,27508.3937862
3427_1_0,8676.76561315,8004.12379731
3427_1_1,16327.4108518,14835.9010775
3427_1_2,8822.40952258,8010.77239595
3427_1_3,8569.92763272,7753.74385449
3427_2_0,9746.88572657,8649.10073551
3427_2_1,8998.17277693,8346.78927929
3427_2_2,7970.20004905,7065.61934173
3427_2_3,10093.8975506,8530.33722065
3427_3,63380.7356357,60112.0198524
3428_0,16633.2546279,15182.7569529
3428_1_0,1876.57185408,1698.01195904
3428_1_1,1806.29742538,1667.395411
3428_1_2,3436.86885075,3006.39756223
3428_1_3,7558.66514019,6731.15919799
3428_2_0,7018.18773742,6107.15536678
3428_2_1,8529.7963873,7692.74184813
3428_2_2,11243.4411279,9932.17129638
3428_2_3,9336.29856387,8302.31631895
3428_3_0,3506.29599293,3241.26807464
3428_3_1,11019.0470992,9769.49153945
3428_3_2,12400.3720886,11154.4675008
3428_3_3,13879.0201418,12335.7984179
3429_0_0,18855.8108871,15849.4041984
3429_0_1,18516.130677,16557.1569765
3429_0_2,20725.595764,17216.7134972
3429_0_3,26124.91262,21662.3994448
3429_1_0,29675.5147796,27188.534422
3429_1_1_0,22547.7846701,20568.9525661
3429_1_1_1_0,10210.2620432,8558.81291676
3429_1_1_1_1,11692.934256,10132.0021865
3429_1_1_1_2,6154.39689802,4995.04010955
3429_1_1_1_3,10846.3780399,9758.58649555
3429_1_1_2_0,23042.6104685,20733.378375
3429_1_1_2_1,15164.2776413,11918.8799229
3429_1_1_2_2,41602.3252854,37655.9855897
3429_1_1_2_3,15236.0493723,14304.4951609
3429_1_1_3,24193.0845457,23579.5414189
3429_1_2_0,33513.7239426,36772.8746449
3429_1_2_1_0,4209.83699728,5455.67829089
3429_1_2_1_1,11213.4234307,14051.9901013
3429_1_2_1_2,13958.7457184,15891.0987505
3429_1_2_1_3,3979.29253178,5753.03734275
3429_1_2_2_0,10791.0492096,15815.6278731
3429_1_2_2_1,11826.9662839,15438.6187326
3429_1_2_2_2,11397.4569948,13409.3473489
3429_1_2_2_3,13532.130494,15841.0192323
3429_1_2_3,54362.9399973,64035.7920667
3429_1_3,47897.2599997,43890.5153466
3429_2_0,30974.0065686,31467.5148256
3429_2_1_0,45560.9983616,41701.293538
3429_2_1_1_0,22820.2807918,22777.6220207
3429_2_1_1_1,35348.7904995,33748.8093658
3429_2_1_1_2,51596.9796517,44346.4775648
3429_2_1_1_3,30017.4371494,27730.1232258
3429_2_1_2_0,25715.3086425,25750.8188021
3429_2_1_2_1,46337.9852053,41313.327116
3429_2_1_2_2,26957.9392689,23998.1095016
3429_2_1_2_3,15710.6335104,16389.7167151
3429_2_1_3,21578.5219605,21926.5689062
3429_2_2_0,8027.05271521,7799.22915829
3429_2_2_1,43527.3614042,47258.7796803
3429_2_2_2,23499.2408659,21644.8086013
3429_2_2_3,4613.25179512,4248.56111216
3429_2_3_0,4146.47554749,3652.09329632
3429_2_3_1,6179.19226148,5199.50426293
3429_2_3_2,4424.276037,3450.09943504
3429_2_3_3,4785.69977116,4018.50870419
3429_3_0,22401.0113459,19594.8318262
3429_3_1,21654.4615907,20545.2052659
3429_3_2,40715.562736,38915.2848433
3429_3_3,36421.6917573,36426.413834
3430_0_0,18563.1089413,17767.5371038
3430_0_1,67069.4571975,62158.0483697
3430_0_2,9592.485551,8954.07531159
3430_0_3,5966.74084115,5132.7423295
3430_1_0_0,5522.24881439,4659.94776216
3430_1_0_1,24917.3861934,20083.8496146
3430_1_0_2,5938.52436877,5123.07755411
3430_1_0_3,68002.3982943,57506.3697813
3430_1_1_0,31298.6021729,27729.1822302
3430_1_1_1,12965.9583011,10513.7159608
3430_1_1_2,23193.0760228,19659.0464112
3430_1_1_3,17760.6345026,15212.3615405
3430_1_2_0,7003.22237128,6217.68451768
3430_1_2_1,10071.3680039,10736.7211235
3430_1_2_2,16222.6337658,18711.6236193
3430_1_2_3,11066.6114528,10220.8049083
3430_1_3_0,5935.42841851,5602.40599011
3430_1_3_1,10017.8541304,9139.38199349
3430_1_3_2,3495.34951035,3333.014317
3430_1_3_3,3629.24847815,3188.42857777
3430_2_0,36353.7776657,34156.3524865
3430_2_1,100601.462849,94849.8748856
3430_2_2,90763.831437,91396.1516819
3430_2_3,31437.9738171,26964.7809404
3430_3_0,6319.5461302,5279.10011914
3430_3_1,11029.3762636,9948.01348737
3430_3_2,20542.3389701,18669.6908641
3430_3_3,6282.4389816,5729.50756355
3431_1_0,10663.8596102,10116.4433761
3431_1_1,20055.0977682,19799.5681687
3431_1_2,8633.40004521,7642.07347933
3431_1_3,9054.95261111,8002.13253544
3431_2,31136.7564595,27265.5160127
3432_0_0,8874.2602616,9205.24467498
3432_0_1,6205.05384533,6014.68782536
3432_0_2,6516.0391371,6717.48048514
3432_0_3,6478.88096739,6265.99476841
3432_1_0,7069.61839262,5875.56731396
3432_1_1,8353.55665917,6944.70494563
3432_1_2,18175.3173189,15904.4399428
3432_1_3,14149.4092632,11710.947101
3432_2_0,9637.04133456,8088.20979587
3432_2_1,23671.2048901,20220.0217738
3432_2_2,44900.4820079,42282.052353
3432_2_3,14020.8489075,14252.9574759
3432_3_0,8548.3446379,7675.71799894
3432_3_1,9144.46577897,9262.65780763
3432_3_2,10485.3601126,10699.1964921
3432_3_3,8576.35158603,7335.22303515
3433_1_0,5518.21322297,6574.04213346
3433_1_1,8601.26485511,9996.60846278
3433_1_2,4405.03876743,4262.08058006
3433_1_3,1904.77501579,1892.89451635
3433_2,17967.0445663,15955.5758686
3437_1_0,802.181504889,925.948192309
3437_1_1,1871.41952821,1810.11283196
3437_1_2,9563.27082388,8969.83612534
3437_1_3,4093.42490186,4647.51080529
3437_2_0,1759.72401826,2102.5336309
3437_2_1,2434.63423476,2692.08186389
3437_2_2,7482.44075472,7035.53787813
3437_2_3,2867.31719332,2741.329752
3438_1,20112.9348779,18078.5452806
3438_2,16828.9100727,15617.8076864
3446_0_0,9447.25186091,10341.9484071
3446_0_1,9083.28985118,9220.31323516
3446_0_2,4946.35017789,4708.28683873
3446_0_3,7905.68668436,8280.46509028
3446_1,38673.551809,34244.1949826
3446_2_0,8944.35235227,8311.48529334
3446_2_2,2084.62722573,1959.57430148
3446_2_3,5982.76816441,5681.88702338
3446_3_0,4353.64943435,3925.08792657
3446_3_1,1250.14497429,1134.5996877
3446_3_2,2892.8528546,2565.8161516
3446_3_3,2004.07223903,1792.11985548
3447_1_0,962.207045082,883.566709579
3447_1_1,2089.64768671,1926.07052818
3447_1_2,3284.98510976,2961.88818565
3447_1_3,777.286207674,729.252627843
3447_2,4231.42556383,4013.69922185
