{
"type": "FeatureCollection",
"crs": { "type": "name", "properties": { "name": "urn:ogc:def:crs:OGC:1.3:CRS84" } },
                                                                                
"features": [
{ "type": "Feature", "properties": { "id": "1251_1" }, "geometry": { "type": "Polygon", "coordinates": [ [ [ 13.500185293987167, 37.614583464767811 ], [ 13.505831682426612, 37.707867944083638 ], [ 13.598445038387414, 37.704284868163164 ], [ 13.59268357988981, 37.611012353463764 ], [ 13.500185293987167, 37.614583464767811 ] ] ] } },
{ "type": "Feature", "properties": { "id": "1251_2" }, "geometry": { "type": "Polygon", "coordinates": [ [ [ 13.59268357988981, 37.611012353463764 ], [ 13.598445038387414, 37.704284868163164 ], [ 13.691041821052897, 37.700629354361105 ], [ 13.685165373173685, 37.607369044991955 ], [ 13.59268357988981, 37.611012353463764 ] ] ] } },
{ "type": "Feature", "properties": { "id": "1251_3" }, "geometry": { "type": "Polygon", "coordinates": [ [ [ 13.598445038387414, 37.704284868163164 ], [ 13.604233130678834, 37.797555149567103 ], [ 13.696945430408398, 37.793887400368085 ], [ 13.691041821052897, 37.700629354361105 ], [ 13.598445038387414, 37.704284868163164 ] ] ] } },
{ "type": "Feature", "properties": { "id": "1251_0" }, "geometry": { "type": "Polygon", "coordinates": [ [ [ 13.505831682426612, 37.707867944083638 ], [ 13.511504176379235, 37.801150219589459 ], [ 13.604233130678834, 37.797555149567103 ], [ 13.598445038387414, 37.704284868163164 ], [ 13.505831682426612, 37.707867944083638 ] ] ] } },
{ "type": "Feature", "properties": { "id": "1252_1" }, "geometry": { "type": "Polygon", "coordinates": [ [ [ 13.315140553304863, 37.621508938715763 ], [ 13.320556565910447, 37.714816624322133 ], [ 13.413202081902103, 37.711378542435632 ], [ 13.407670842620126, 37.618082339418393 ], [ 13.315140553304863, 37.621508938715763 ] ] ] } },
{ "type": "Feature", "properties": { "id": "1252_2" }, "geometry": { "type": "Polygon", "coordinates": [ [ [ 13.407670842620126, 37.618082339418393 ], [ 13.413202081902103, 37.711378542435632 ], [ 13.505831682426612, 37.707867944083638 ], [ 13.500185293987167, 37.614583464767811 ], [ 13.407670842620126, 37.618082339418393 ] ] ] } },
{ "type": "Feature", "properties": { "id": "1252_3" }, "geometry": { "type": "Polygon", "coordinates": [ [ [ 13.413202081902103, 37.711378542435632 ], [ 13.418758897829964, 37.804672570545868 ], [ 13.511504176379235, 37.801150219589459 ], [ 13.505831682426612, 37.707867944083638 ], [ 13.413202081902103, 37.711378542435632 ] ] ] } },
{ "type": "Feature", "properties": { "id": "1252_0" }, "geometry": { "type": "Polygon", "coordinates": [ [ [ 13.320556565910447, 37.714816624322133 ], [ 13.325997625719523, 37.808122163340897 ], [ 13.418758897829964, 37.804672570545868 ], [ 13.413202081902103, 37.711378542435632 ], [ 13.320556565910447, 37.714816624322133 ] ] ] } },
{ "type": "Feature", "properties": { "id": "1256_1" }, "geometry": { "type": "Polygon", "coordinates": [ [ [ 13.685165373173685, 37.607369044991955 ], [ 13.691041821052897, 37.700629354361105 ], [ 13.783621702063572, 37.696901443152981 ], [ 13.777630347053314, 37.603653579622751 ], [ 13.685165373173685, 37.607369044991955 ] ] ] } },
{ "type": "Feature", "properties": { "id": "1256_2" }, "geometry": { "type": "Polygon", "coordinates": [ [ [ 13.777630347053314, 37.603653579622751 ], [ 13.783621702063572, 37.696901443152981 ], [ 13.876184353439186, 37.693101175801687 ], [ 13.870078175119183, 37.599865998409967 ], [ 13.777630347053314, 37.603653579622751 ] ] ] } },
{ "type": "Feature", "properties": { "id": "1256_3" }, "geometry": { "type": "Polygon", "coordinates": [ [ [ 13.783621702063572, 37.696901443152981 ], [ 13.789640745622924, 37.790147012674296 ], [ 13.882318746759985, 37.786334027958951 ], [ 13.876184353439186, 37.693101175801687 ], [ 13.783621702063572, 37.696901443152981 ] ] ] } },
{ "type": "Feature", "properties": { "id": "1256_0" }, "geometry": { "type": "Polygon", "coordinates": [ [ [ 13.691041821052897, 37.700629354361105 ], [ 13.696945430408398, 37.793887400368085 ], [ 13.789640745622924, 37.790147012674296 ], [ 13.783621702063572, 37.696901443152981 ], [ 13.691041821052897, 37.700629354361105 ] ] ] } },
{ "type": "Feature", "properties": { "id": "1257_1" }, "geometry": { "type": "Polygon", "coordinates": [ [ [ 13.696945430408398, 37.793887400368085 ], [ 13.70287633439945, 37.887143177208294 ], [ 13.795687613433241, 37.883390282200885 ], [ 13.789640745622924, 37.790147012674296 ], [ 13.696945430408398, 37.793887400368085 ] ] ] } },
{ "type": "Feature", "properties": { "id": "1257_2" }, "geometry": { "type": "Polygon", "coordinates": [ [ [ 13.789640745622924, 37.790147012674296 ], [ 13.795687613433241, 37.883390282200885 ], [ 13.888481493320624, 37.879564548711372 ], [ 13.882318746759985, 37.786334027958951 ], [ 13.789640745622924, 37.790147012674296 ] ] ] } },
{ "type": "Feature", "properties": { "id": "1257_0" }, "geometry": { "type": "Polygon", "coordinates": [ [ [ 13.70287633439945, 37.887143177208294 ], [ 13.708834667173631, 37.980396679061627 ], [ 13.801762442203254, 37.976631245730182 ], [ 13.795687613433241, 37.883390282200885 ], [ 13.70287633439945, 37.887143177208294 ] ] ] } },
{ "type": "Feature", "properties": { "id": "1261_1" }, "geometry": { "type": "Polygon", "coordinates": [ [ [ 13.325997625719523, 37.808122163340897 ], [ 13.331463855668636, 37.901425550658509 ], [ 13.424341415903589, 37.897964418467893 ], [ 13.418758897829964, 37.804672570545868 ], [ 13.325997625719523, 37.808122163340897 ] ] ] } },
{ "type": "Feature", "properties": { "id": "1261_2" }, "geometry": { "type": "Polygon", "coordinates": [ [ [ 13.418758897829964, 37.804672570545868 ], [ 13.424341415903589, 37.897964418467893 ], [ 13.517202903903216, 37.894430285832989 ], [ 13.511504176379235, 37.801150219589459 ], [ 13.418758897829964, 37.804672570545868 ] ] ] } },
{ "type": "Feature", "properties": { "id": "1261_3_1" }, "geometry": { "type": "Polygon", "coordinates": [ [ [ 13.424341415903589, 37.897964418467893 ], [ 13.427142352718477, 37.944609523204683 ], [ 13.473604283926713, 37.942848643771754 ], [ 13.470774189709694, 37.896206474768753 ], [ 13.424341415903589, 37.897964418467893 ] ] ] } },
{ "type": "Feature", "properties": { "id": "1261_3_2" }, "geometry": { "type": "Polygon", "coordinates": [ [ [ 13.470774189709694, 37.896206474768753 ], [ 13.473604283926713, 37.942848643771754 ], [ 13.520062145532464, 37.941069488773969 ], [ 13.517202903903216, 37.894430285832989 ], [ 13.470774189709694, 37.896206474768753 ] ] ] } },
{ "type": "Feature", "properties": { "id": "1261_3_3" }, "geometry": { "type": "Polygon", "coordinates": [ [ [ 13.473604283926713, 37.942848643771754 ], [ 13.476440918096204, 37.98949026209371 ], [ 13.522927994007752, 37.987708137348825 ], [ 13.520062145532464, 37.941069488773969 ], [ 13.473604283926713, 37.942848643771754 ] ] ] } },
{ "type": "Feature", "properties": { "id": "1261_3_0" }, "geometry": { "type": "Polygon", "coordinates": [ [ [ 13.427142352718477, 37.944609523204683 ], [ 13.429949762555157, 37.991254080908554 ], [ 13.476440918096204, 37.98949026209371 ], [ 13.473604283926713, 37.942848643771754 ], [ 13.427142352718477, 37.944609523204683 ] ] ] } },
{ "type": "Feature", "properties": { "id": "1261_0" }, "geometry": { "type": "Polygon", "coordinates": [ [ [ 13.331463855668636, 37.901425550658509 ], [ 13.336955379607858, 37.994726781150632 ], [ 13.429949762555157, 37.991254080908554 ], [ 13.424341415903589, 37.897964418467893 ], [ 13.331463855668636, 37.901425550658509 ] ] ] } },
{ "type": "Feature", "properties": { "id": "1262_1" }, "geometry": { "type": "Polygon", "coordinates": [ [ [ 13.511504176379235, 37.801150219589459 ], [ 13.517202903903216, 37.894430285832989 ], [ 13.610047987375417, 37.890823192048828 ], [ 13.604233130678834, 37.797555149567103 ], [ 13.511504176379235, 37.801150219589459 ] ] ] } },
{ "type": "Feature", "properties": { "id": "1262_2" }, "geometry": { "type": "Polygon", "coordinates": [ [ [ 13.604233130678834, 37.797555149567103 ], [ 13.610047987375417, 37.890823192048828 ], [ 13.70287633439945, 37.887143177208294 ], [ 13.696945430408398, 37.793887400368085 ], [ 13.604233130678834, 37.797555149567103 ] ] ] } },
{ "type": "Feature", "properties": { "id": "1262_3" }, "geometry": { "type": "Polygon", "coordinates": [ [ [ 13.610047987375417, 37.890823192048828 ], [ 13.615889740058183, 37.984088989967276 ], [ 13.708834667173631, 37.980396679061627 ], [ 13.70287633439945, 37.887143177208294 ], [ 13.610047987375417, 37.890823192048828 ] ] ] } },
{ "type": "Feature", "properties": { "id": "1262_0_1" }, "geometry": { "type": "Polygon", "coordinates": [ [ [ 13.517202903903216, 37.894430285832989 ], [ 13.520062145532464, 37.941069488773969 ], [ 13.566515895909925, 37.939272063160772 ], [ 13.563627516959082, 37.892635856597444 ], [ 13.517202903903216, 37.894430285832989 ] ] ] } },
{ "type": "Feature", "properties": { "id": "1262_0_2" }, "geometry": { "type": "Polygon", "coordinates": [ [ [ 13.563627516959082, 37.892635856597444 ], [ 13.566515895909925, 37.939272063160772 ], [ 13.612965493456603, 37.937456371931589 ], [ 13.610047987375417, 37.890823192048828 ], [ 13.563627516959082, 37.892635856597444 ] ] ] } },
{ "type": "Feature", "properties": { "id": "1262_0_3" }, "geometry": { "type": "Polygon", "coordinates": [ [ [ 13.566515895909925, 37.939272063160772 ], [ 13.569410948562906, 37.985907711635953 ], [ 13.615889740058183, 37.984088989967276 ], [ 13.612965493456603, 37.937456371931589 ], [ 13.566515895909925, 37.939272063160772 ] ] ] } },
{ "type": "Feature", "properties": { "id": "1262_0_0" }, "geometry": { "type": "Polygon", "coordinates": [ [ [ 13.520062145532464, 37.941069488773969 ], [ 13.522927994007752, 37.987708137348825 ], [ 13.569410948562906, 37.985907711635953 ], [ 13.566515895909925, 37.939272063160772 ], [ 13.520062145532464, 37.941069488773969 ] ] ] } },
{ "type": "Feature", "properties": { "id": "1263" }, "geometry": { "type": "Polygon", "coordinates": [ [ [ 13.522927994007752, 37.987708137348825 ], [ 13.534457782800532, 38.174257174268725 ], [ 13.720834160655274, 38.166896834447975 ], [ 13.708834667173631, 37.980396679061627 ], [ 13.522927994007752, 37.987708137348825 ] ] ] } },
{ "type": "Feature", "properties": { "id": "1264_1_1" }, "geometry": { "type": "Polygon", "coordinates": [ [ [ 13.336955379607858, 37.994726781150632 ], [ 13.339710665778668, 38.041376585982754 ], [ 13.386239166555381, 38.039646511514796 ], [ 13.383454569134695, 37.992999588881432 ], [ 13.336955379607858, 37.994726781150632 ] ] ] } },
{ "type": "Feature", "properties": { "id": "1264_1_2" }, "geometry": { "type": "Polygon", "coordinates": [ [ [ 13.383454569134695, 37.992999588881432 ], [ 13.386239166555381, 38.039646511514796 ], [ 13.432763661364666, 38.037898090915924 ], [ 13.429949762555157, 37.991254080908554 ], [ 13.383454569134695, 37.992999588881432 ] ] ] } },
{ "type": "Feature", "properties": { "id": "1264_1_3_1" }, "geometry": { "type": "Polygon", "coordinates": [ [ [ 13.386239166555381, 38.039646511514796 ], [ 13.387633878406579, 38.062969768599267 ], [ 13.410903967755711, 38.062097124328531 ], [ 13.409501917323656, 38.038774594178271 ], [ 13.386239166555381, 38.039646511514796 ] ] ] } },
{ "type": "Feature", "properties": { "id": "1264_1_3_2" }, "geometry": { "type": "Polygon", "coordinates": [ [ [ 13.409501917323656, 38.038774594178271 ], [ 13.410903967755711, 38.062097124328531 ], [ 13.434173049135133, 38.061219890325866 ], [ 13.432763661364666, 38.037898090915924 ], [ 13.409501917323656, 38.038774594178271 ] ] ] } },
{ "type": "Feature", "properties": { "id": "1264_1_3_3" }, "geometry": { "type": "Polygon", "coordinates": [ [ [ 13.410903967755711, 38.062097124328531 ], [ 13.412307638018719, 38.08541951776138 ], [ 13.435584065157329, 38.084541552562477 ], [ 13.434173049135133, 38.061219890325866 ], [ 13.410903967755711, 38.062097124328531 ] ] ] } },
{ "type": "Feature", "properties": { "id": "1264_1_3_0" }, "geometry": { "type": "Polygon", "coordinates": [ [ [ 13.387633878406579, 38.062969768599267 ], [ 13.389030201665644, 38.08629288941988 ], [ 13.412307638018719, 38.08541951776138 ], [ 13.410903967755711, 38.062097124328531 ], [ 13.387633878406579, 38.062969768599267 ] ] ] } },
{ "type": "Feature", "properties": { "id": "1264_1_0_1" }, "geometry": { "type": "Polygon", "coordinates": [ [ [ 13.339710665778668, 38.041376585982754 ], [ 13.341090696766328, 38.064701285514154 ], [ 13.364362786329165, 38.063837822529578 ], [ 13.36297541429489, 38.0405138423178 ], [ 13.339710665778668, 38.041376585982754 ] ] ] } },
{ "type": "Feature", "properties": { "id": "1264_1_0_2" }, "geometry": { "type": "Polygon", "coordinates": [ [ [ 13.36297541429489, 38.0405138423178 ], [ 13.364362786329165, 38.063837822529578 ], [ 13.387633878406579, 38.062969768599267 ], [ 13.386239166555381, 38.039646511514796 ], [ 13.36297541429489, 38.0405138423178 ] ] ] } },
{ "type": "Feature", "properties": { "id": "1264_1_0_3" }, "geometry": { "type": "Polygon", "coordinates": [ [ [ 13.364362786329165, 38.063837822529578 ], [ 13.365751761345921, 38.087161666928743 ], [ 13.389030201665644, 38.08629288941988 ], [ 13.387633878406579, 38.062969768599267 ], [ 13.364362786329165, 38.063837822529578 ] ] ] } },
{ "type": "Feature", "properties": { "id": "1264_1_0_0" }, "geometry": { "type": "Polygon", "coordinates": [ [ [ 13.341090696766328, 38.064701285514154 ], [ 13.342472322308799, 38.088025849681863 ], [ 13.365751761345921, 38.087161666928743 ], [ 13.364362786329165, 38.063837822529578 ], [ 13.341090696766328, 38.064701285514154 ] ] ] } },
{ "type": "Feature", "properties": { "id": "1264_2_1" }, "geometry": { "type": "Polygon", "coordinates": [ [ [ 13.429949762555157, 37.991254080908554 ], [ 13.432763661364666, 38.037898090915924 ], [ 13.47928410833182, 38.036131329060261 ], [ 13.476440918096204, 37.98949026209371 ], [ 13.429949762555157, 37.991254080908554 ] ] ] } },
{ "type": "Feature", "properties": { "id": "1264_2_2" }, "geometry": { "type": "Polygon", "coordinates": [ [ [ 13.476440918096204, 37.98949026209371 ], [ 13.47928410833182, 38.036131329060261 ], [ 13.525800465605197, 38.034346230872266 ], [ 13.522927994007752, 37.987708137348825 ], [ 13.476440918096204, 37.98949026209371 ] ] ] } },
{ "type": "Feature", "properties": { "id": "1264_2_3_1" }, "geometry": { "type": "Polygon", "coordinates": [ [ [ 13.47928410833182, 38.036131329060261 ], [ 13.480708167026313, 38.059451655574307 ], [ 13.503974193062426, 38.058560656058113 ], [ 13.502542800795052, 38.03524107169806 ], [ 13.47928410833182, 38.036131329060261 ] ] ] } },
{ "type": "Feature", "properties": { "id": "1264_2_3_2" }, "geometry": { "type": "Polygon", "coordinates": [ [ [ 13.502542800795052, 38.03524107169806 ], [ 13.503974193062426, 38.058560656058113 ], [ 13.527239190177548, 38.057665069275338 ], [ 13.525800465605197, 38.034346230872266 ], [ 13.502542800795052, 38.03524107169806 ] ] ] } },
{ "type": "Feature", "properties": { "id": "1264_2_3_3" }, "geometry": { "type": "Polygon", "coordinates": [ [ [ 13.503974193062426, 38.058560656058113 ], [ 13.505407238829884, 38.081880101863156 ], [ 13.528679576661405, 38.080983768658193 ], [ 13.527239190177548, 38.057665069275338 ], [ 13.503974193062426, 38.058560656058113 ] ] ] } },
{ "type": "Feature", "properties": { "id": "1264_2_3_0" }, "geometry": { "type": "Polygon", "coordinates": [ [ [ 13.480708167026313, 38.059451655574307 ], [ 13.482133870807111, 38.082771843996234 ], [ 13.505407238829884, 38.081880101863156 ], [ 13.503974193062426, 38.058560656058113 ], [ 13.480708167026313, 38.059451655574307 ] ] ] } },
{ "type": "Feature", "properties": { "id": "1264_2_0" }, "geometry": { "type": "Polygon", "coordinates": [ [ [ 13.432763661364666, 38.037898090915924 ], [ 13.435584065157329, 38.084541552562477 ], [ 13.482133870807111, 38.082771843996234 ], [ 13.47928410833182, 38.036131329060261 ], [ 13.432763661364666, 38.037898090915924 ] ] ] } },
{ "type": "Feature", "properties": { "id": "1264_3" }, "geometry": { "type": "Polygon", "coordinates": [ [ [ 13.435584065157329, 38.084541552562477 ], [ 13.441244452031505, 38.177826828111918 ], [ 13.534457782800532, 38.174257174268725 ], [ 13.528679576661405, 38.080983768658193 ], [ 13.435584065157329, 38.084541552562477 ] ] ] } },
{ "type": "Feature", "properties": { "id": "1264_0" }, "geometry": { "type": "Polygon", "coordinates": [ [ [ 13.342472322308799, 38.088025849681863 ], [ 13.348014809472708, 38.181322751105604 ], [ 13.441244452031505, 38.177826828111918 ], [ 13.435584065157329, 38.084541552562477 ], [ 13.342472322308799, 38.088025849681863 ] ] ] } },
{ "type": "Feature", "properties": { "id": "1271_1" }, "geometry": { "type": "Polygon", "coordinates": [ [ [ 13.1300337726606, 37.628145160388634 ], [ 13.13521910569365, 37.72147508706729 ], [ 13.227895463905991, 37.71818215163723 ], [ 13.222594753912222, 37.62486322474728 ], [ 13.1300337726606, 37.628145160388634 ] ] ] } },
{ "type": "Feature", "properties": { "id": "1271_2" }, "geometry": { "type": "Polygon", "coordinates": [ [ [ 13.222594753912222, 37.62486322474728 ], [ 13.227895463905991, 37.71818215163723 ], [ 13.320556565910447, 37.714816624322133 ], [ 13.315140553304863, 37.621508938715763 ], [ 13.222594753912222, 37.62486322474728 ] ] ] } },
{ "type": "Feature", "properties": { "id": "1271_3" }, "geometry": { "type": "Polygon", "coordinates": [ [ [ 13.227895463905991, 37.71818215163723 ], [ 13.233220691097337, 37.811498959674189 ], [ 13.325997625719523, 37.808122163340897 ], [ 13.320556565910447, 37.714816624322133 ], [ 13.227895463905991, 37.71818215163723 ] ] ] } },
{ "type": "Feature", "properties": { "id": "1271_0" }, "geometry": { "type": "Polygon", "coordinates": [ [ [ 13.13521910569365, 37.72147508706729 ], [ 13.140428425366464, 37.814802922041672 ], [ 13.233220691097337, 37.811498959674189 ], [ 13.227895463905991, 37.71818215163723 ], [ 13.13521910569365, 37.72147508706729 ] ] ] } },
{ "type": "Feature", "properties": { "id": "1272_1" }, "geometry": { "type": "Polygon", "coordinates": [ [ [ 12.944867579148688, 37.63449183595214 ], [ 12.949821941574521, 37.727843036986208 ], [ 13.042527821421698, 37.724695394092137 ], [ 13.037457938108766, 37.631354709305 ], [ 12.944867579148688, 37.63449183595214 ] ] ] } },
{ "type": "Feature", "properties": { "id": "1272_2" }, "geometry": { "type": "Polygon", "coordinates": [ [ [ 13.037457938108766, 37.631354709305 ], [ 13.042527821421698, 37.724695394092137 ], [ 13.13521910569365, 37.72147508706729 ], [ 13.1300337726606, 37.628145160388634 ], [ 13.037457938108766, 37.631354709305 ] ] ] } },
{ "type": "Feature", "properties": { "id": "1272_3" }, "geometry": { "type": "Polygon", "coordinates": [ [ [ 13.042527821421698, 37.724695394092137 ], [ 13.047621160276337, 37.818034013736728 ], [ 13.140428425366464, 37.814802922041672 ], [ 13.13521910569365, 37.72147508706729 ], [ 13.042527821421698, 37.724695394092137 ] ] ] } },
{ "type": "Feature", "properties": { "id": "1272_0" }, "geometry": { "type": "Polygon", "coordinates": [ [ [ 12.949821941574521, 37.727843036986208 ], [ 12.954799227915441, 37.821192198851357 ], [ 13.047621160276337, 37.818034013736728 ], [ 13.042527821421698, 37.724695394092137 ], [ 12.949821941574521, 37.727843036986208 ] ] ] } },
{ "type": "Feature", "properties": { "id": "1273_1" }, "geometry": { "type": "Polygon", "coordinates": [ [ [ 12.954799227915441, 37.821192198851357 ], [ 12.959799550806327, 37.914539317070535 ], [ 13.052738069890038, 37.911370563607733 ], [ 13.047621160276337, 37.818034013736728 ], [ 12.954799227915441, 37.821192198851357 ] ] ] } },
{ "type": "Feature", "properties": { "id": "1273_2" }, "geometry": { "type": "Polygon", "coordinates": [ [ [ 13.047621160276337, 37.818034013736728 ], [ 13.052738069890038, 37.911370563607733 ], [ 13.14566184947423, 37.908128660523339 ], [ 13.140428425366464, 37.814802922041672 ], [ 13.047621160276337, 37.818034013736728 ] ] ] } },
{ "type": "Feature", "properties": { "id": "1273_3" }, "geometry": { "type": "Polygon", "coordinates": [ [ [ 13.052738069890038, 37.911370563607733 ], [ 13.057878666337027, 38.004705039066621 ], [ 13.150919496687942, 38.001452297715275 ], [ 13.14566184947423, 37.908128660523339 ], [ 13.052738069890038, 37.911370563607733 ] ] ] } },
{ "type": "Feature", "properties": { "id": "1273_0" }, "geometry": { "type": "Polygon", "coordinates": [ [ [ 12.959799550806327, 37.914539317070535 ], [ 12.964823023719966, 38.007884387160239 ], [ 13.057878666337027, 38.004705039066621 ], [ 13.052738069890038, 37.911370563607733 ], [ 12.959799550806327, 37.914539317070535 ] ] ] } },
{ "type": "Feature", "properties": { "id": "1274_1" }, "geometry": { "type": "Polygon", "coordinates": [ [ [ 13.140428425366464, 37.814802922041672 ], [ 13.14566184947423, 37.908128660523339 ], [ 13.23857055585454, 37.904813643908874 ], [ 13.233220691097337, 37.811498959674189 ], [ 13.140428425366464, 37.814802922041672 ] ] ] } },
{ "type": "Feature", "properties": { "id": "1274_2" }, "geometry": { "type": "Polygon", "coordinates": [ [ [ 13.233220691097337, 37.811498959674189 ], [ 13.23857055585454, 37.904813643908874 ], [ 13.331463855668636, 37.901425550658509 ], [ 13.325997625719523, 37.808122163340897 ], [ 13.233220691097337, 37.811498959674189 ] ] ] } },
{ "type": "Feature", "properties": { "id": "1274_3" }, "geometry": { "type": "Polygon", "coordinates": [ [ [ 13.23857055585454, 37.904813643908874 ], [ 13.243945179440582, 37.998126199382327 ], [ 13.336955379607858, 37.994726781150632 ], [ 13.331463855668636, 37.901425550658509 ], [ 13.23857055585454, 37.904813643908874 ] ] ] } },
{ "type": "Feature", "properties": { "id": "1274_0" }, "geometry": { "type": "Polygon", "coordinates": [ [ [ 13.14566184947423, 37.908128660523339 ], [ 13.150919496687942, 38.001452297715275 ], [ 13.243945179440582, 37.998126199382327 ], [ 13.23857055585454, 37.904813643908874 ], [ 13.14566184947423, 37.908128660523339 ] ] ] } },
{ "type": "Feature", "properties": { "id": "1275_1_1" }, "geometry": { "type": "Polygon", "coordinates": [ [ [ 13.150919496687942, 38.001452297715275 ], [ 13.153557441285583, 38.048113326826112 ], [ 13.200101546731975, 38.046456684615393 ], [ 13.197434252458912, 37.999798415872711 ], [ 13.150919496687942, 38.001452297715275 ] ] ] } },
{ "type": "Feature", "properties": { "id": "1275_1_2" }, "geometry": { "type": "Polygon", "coordinates": [ [ [ 13.197434252458912, 37.999798415872711 ], [ 13.200101546731975, 38.046456684615393 ], [ 13.246641813935669, 38.044781677281208 ], [ 13.243945179440582, 37.998126199382327 ], [ 13.197434252458912, 37.999798415872711 ] ] ] } },
{ "type": "Feature", "properties": { "id": "1275_1_3" }, "geometry": { "type": "Polygon", "coordinates": [ [ [ 13.200101546731975, 38.046456684615393 ], [ 13.202775009157179, 38.093114422786925 ], [ 13.249344684020981, 38.091436621125681 ], [ 13.246641813935669, 38.044781677281208 ], [ 13.200101546731975, 38.046456684615393 ] ] ] } },
{ "type": "Feature", "properties": { "id": "1275_1_0" }, "geometry": { "type": "Polygon", "coordinates": [ [ [ 13.153557441285583, 38.048113326826112 ], [ 13.156201486562091, 38.094773828811654 ], [ 13.202775009157179, 38.093114422786925 ], [ 13.200101546731975, 38.046456684615393 ], [ 13.153557441285583, 38.048113326826112 ] ] ] } },
{ "type": "Feature", "properties": { "id": "1275_2_1" }, "geometry": { "type": "Polygon", "coordinates": [ [ [ 13.243945179440582, 37.998126199382327 ], [ 13.246641813935669, 38.044781677281208 ], [ 13.29317820093206, 38.043088309496014 ], [ 13.290452235770401, 37.996435652904665 ], [ 13.243945179440582, 37.998126199382327 ] ] ] } },
{ "type": "Feature", "properties": { "id": "1275_2_2" }, "geometry": { "type": "Polygon", "coordinates": [ [ [ 13.290452235770401, 37.996435652904665 ], [ 13.29317820093206, 38.043088309496014 ], [ 13.339710665778668, 38.041376585982754 ], [ 13.336955379607858, 37.994726781150632 ], [ 13.290452235770401, 37.996435652904665 ] ] ] } },
{ "type": "Feature", "properties": { "id": "1275_2_3_1" }, "geometry": { "type": "Polygon", "coordinates": [ [ [ 13.29317820093206, 38.043088309496014 ], [ 13.294543546162931, 38.066414436240613 ], [ 13.317817614962353, 38.065560156950838 ], [ 13.316444926244621, 38.042234741908239 ], [ 13.29317820093206, 38.043088309496014 ] ] ] } },
{ "type": "Feature", "properties": { "id": "1275_2_3_2" }, "geometry": { "type": "Polygon", "coordinates": [ [ [ 13.316444926244621, 38.042234741908239 ], [ 13.317817614962353, 38.065560156950838 ], [ 13.341090696766328, 38.064701285514154 ], [ 13.339710665778668, 38.041376585982754 ], [ 13.316444926244621, 38.042234741908239 ] ] ] } },
{ "type": "Feature", "properties": { "id": "1275_2_3_3" }, "geometry": { "type": "Polygon", "coordinates": [ [ [ 13.317817614962353, 38.065560156950838 ], [ 13.319191889804948, 38.088885437076321 ], [ 13.342472322308799, 38.088025849681863 ], [ 13.341090696766328, 38.064701285514154 ], [ 13.317817614962353, 38.065560156950838 ] ] ] } },
{ "type": "Feature", "properties": { "id": "1275_2_3_0" }, "geometry": { "type": "Polygon", "coordinates": [ [ [ 13.294543546162931, 38.066414436240613 ], [ 13.295910469086458, 38.089740428512322 ], [ 13.319191889804948, 38.088885437076321 ], [ 13.317817614962353, 38.065560156950838 ], [ 13.294543546162931, 38.066414436240613 ] ] ] } },
{ "type": "Feature", "properties": { "id": "1275_2_0_1" }, "geometry": { "type": "Polygon", "coordinates": [ [ [ 13.246641813935669, 38.044781677281208 ], [ 13.247992468567576, 38.068109215999158 ], [ 13.271268495615171, 38.06726412278762 ], [ 13.269910495081703, 38.043937288150985 ], [ 13.246641813935669, 38.044781677281208 ] ] ] } },
{ "type": "Feature", "properties": { "id": "1275_2_0_2" }, "geometry": { "type": "Polygon", "coordinates": [ [ [ 13.269910495081703, 38.043937288150985 ], [ 13.271268495615171, 38.06726412278762 ], [ 13.294543546162931, 38.066414436240613 ], [ 13.29317820093206, 38.043088309496014 ], [ 13.269910495081703, 38.043937288150985 ] ] ] } },
{ "type": "Feature", "properties": { "id": "1275_2_0_3" }, "geometry": { "type": "Polygon", "coordinates": [ [ [ 13.271268495615171, 38.06726412278762 ], [ 13.272628065406833, 38.090590823393256 ], [ 13.295910469086458, 38.089740428512322 ], [ 13.294543546162931, 38.066414436240613 ], [ 13.271268495615171, 38.06726412278762 ] ] ] } },
{ "type": "Feature", "properties": { "id": "1275_2_0_0" }, "geometry": { "type": "Polygon", "coordinates": [ [ [ 13.247992468567576, 38.068109215999158 ], [ 13.249344684020981, 38.091436621125681 ], [ 13.272628065406833, 38.090590823393256 ], [ 13.271268495615171, 38.06726412278762 ], [ 13.247992468567576, 38.068109215999158 ] ] ] } },
{ "type": "Feature", "properties": { "id": "1275_3_1_1" }, "geometry": { "type": "Polygon", "coordinates": [ [ [ 13.249344684020981, 38.091436621125681 ], [ 13.250698462224298, 38.114763892582943 ], [ 13.273989206395399, 38.11391738988943 ], [ 13.272628065406833, 38.090590823393256 ], [ 13.249344684020981, 38.091436621125681 ] ] ] } },
{ "type": "Feature", "properties": { "id": "1275_3_1_2" }, "geometry": { "type": "Polygon", "coordinates": [ [ [ 13.272628065406833, 38.090590823393256 ], [ 13.273989206395399, 38.11391738988943 ], [ 13.297278971651632, 38.113066286232005 ], [ 13.295910469086458, 38.089740428512322 ], [ 13.272628065406833, 38.090590823393256 ] ] ] } },
{ "type": "Feature", "properties": { "id": "1275_3_1_3" }, "geometry": { "type": "Polygon", "coordinates": [ [ [ 13.273989206395399, 38.11391738988943 ], [ 13.27535192052318, 38.137243822197583 ], [ 13.298649055811071, 38.13639200932046 ], [ 13.297278971651632, 38.113066286232005 ], [ 13.273989206395399, 38.11391738988943 ] ] ] } },
{ "type": "Feature", "properties": { "id": "1275_3_1_0" }, "geometry": { "type": "Polygon", "coordinates": [ [ [ 13.250698462224298, 38.114763892582943 ], [ 13.252053805109529, 38.138091030293047 ], [ 13.27535192052318, 38.137243822197583 ], [ 13.273989206395399, 38.11391738988943 ], [ 13.250698462224298, 38.114763892582943 ] ] ] } },
{ "type": "Feature", "properties": { "id": "1275_3_2_1" }, "geometry": { "type": "Polygon", "coordinates": [ [ [ 13.295910469086458, 38.089740428512322 ], [ 13.297278971651632, 38.113066286232005 ], [ 13.320567752731678, 38.112210582204874 ], [ 13.319191889804948, 38.088885437076321 ], [ 13.295910469086458, 38.089740428512322 ] ] ] } },
{ "type": "Feature", "properties": { "id": "1275_3_2_2_1" }, "geometry": { "type": "Polygon", "coordinates": [ [ [ 13.319191889804948, 38.088885437076321 ], [ 13.319879622635201, 38.100548026520208 ], [ 13.331521802075939, 38.100118628445401 ], [ 13.330832229911993, 38.08845621783648 ], [ 13.319191889804948, 38.088885437076321 ] ] ] } },
{ "type": "Feature", "properties": { "id": "1275_3_2_2_2" }, "geometry": { "type": "Polygon", "coordinates": [ [ [ 13.330832229911993, 38.08845621783648 ], [ 13.331521802075939, 38.100118628445401 ], [ 13.343163733653428, 38.099688080979206 ], [ 13.342472322308799, 38.088025849681863 ], [ 13.330832229911993, 38.08845621783648 ] ] ] } },
{ "type": "Feature", "properties": { "id": "1275_3_2_2_3_1" }, "geometry": { "type": "Polygon", "coordinates": [ [ [ 13.331521802075939, 38.100118628445401 ], [ 13.331866737513272, 38.105949821069821 ], [ 13.337688194328637, 38.105734646197348 ], [ 13.337342798888645, 38.099903498381536 ], [ 13.331521802075939, 38.100118628445401 ] ] ] } },
{ "type": "Feature", "properties": { "id": "1275_3_2_2_3_2" }, "geometry": { "type": "Polygon", "coordinates": [ [ [ 13.337342798888645, 38.099903498381536 ], [ 13.337688194328637, 38.105734646197348 ], [ 13.343509589076911, 38.105519183926823 ], [ 13.343163733653428, 38.099688080979206 ], [ 13.337342798888645, 38.099903498381536 ] ] ] } },
{ "type": "Feature", "properties": { "id": "1275_3_2_2_3_3" }, "geometry": { "type": "Polygon", "coordinates": [ [ [ 13.337688194328637, 38.105734646197348 ], [ 13.338033689511869, 38.11156578555115 ], [ 13.343855544375625, 38.111350278405418 ], [ 13.343509589076911, 38.105519183926823 ], [ 13.337688194328637, 38.105734646197348 ] ] ] } },
{ "type": "Feature", "properties": { "id": "1275_3_2_2_3_0" }, "geometry": { "type": "Polygon", "coordinates": [ [ [ 13.331866737513272, 38.105949821069821 ], [ 13.332211772561854, 38.11178100523923 ], [ 13.338033689511869, 38.11156578555115 ], [ 13.337688194328637, 38.105734646197348 ], [ 13.331866737513272, 38.105949821069821 ] ] ] } },
{ "type": "Feature", "properties": { "id": "1275_3_2_2_0" }, "geometry": { "type": "Polygon", "coordinates": [ [ [ 13.319879622635201, 38.100548026520208 ], [ 13.320567752731678, 38.112210582204874 ], [ 13.332211772561854, 38.11178100523923 ], [ 13.331521802075939, 38.100118628445401 ], [ 13.319879622635201, 38.100548026520208 ] ] ] } },
{ "type": "Feature", "properties": { "id": "1275_3_2_3_1" }, "geometry": { "type": "Polygon", "coordinates": [ [ [ 13.320567752731678, 38.112210582204874 ], [ 13.321256280339862, 38.123873104120356 ], [ 13.332902141615859, 38.12344334820795 ], [ 13.332211772561854, 38.11178100523923 ], [ 13.320567752731678, 38.112210582204874 ] ] ] } },
{ "type": "Feature", "properties": { "id": "1275_3_2_3_2_1" }, "geometry": { "type": "Polygon", "coordinates": [ [ [ 13.332211772561854, 38.11178100523923 ], [ 13.332556907252453, 38.117612180952356 ], [ 13.338379284469157, 38.11739691644167 ], [ 13.338033689511869, 38.11156578555115 ], [ 13.332211772561854, 38.11178100523923 ] ] ] } },
{ "type": "Feature", "properties": { "id": "1275_3_2_3_2_2" }, "geometry": { "type": "Polygon", "coordinates": [ [ [ 13.338033689511869, 38.11156578555115 ], [ 13.338379284469157, 38.11739691644167 ], [ 13.344201599580417, 38.117181364413725 ], [ 13.343855544375625, 38.111350278405418 ], [ 13.338033689511869, 38.11156578555115 ] ] ] } },
{ "type": "Feature", "properties": { "id": "1275_3_2_3_2_3" }, "geometry": { "type": "Polygon", "coordinates": [ [ [ 13.338379284469157, 38.11739691644167 ], [ 13.338724979231326, 38.123228038867651 ], [ 13.344547754722155, 38.123012441950472 ], [ 13.344201599580417, 38.117181364413725 ], [ 13.338379284469157, 38.11739691644167 ] ] ] } },
{ "type": "Feature", "properties": { "id": "1275_3_2_3_2_0" }, "geometry": { "type": "Polygon", "coordinates": [ [ [ 13.332556907252453, 38.117612180952356 ], [ 13.332902141615859, 38.12344334820795 ], [ 13.338724979231326, 38.123228038867651 ], [ 13.338379284469157, 38.11739691644167 ], [ 13.332556907252453, 38.117612180952356 ] ] ] } },
{ "type": "Feature", "properties": { "id": "1275_3_2_3_3_1" }, "geometry": { "type": "Polygon", "coordinates": [ [ [ 13.332902141615859, 38.12344334820795 ], [ 13.333247475682873, 38.129274507004752 ], [ 13.339070773829217, 38.129059152827828 ], [ 13.338724979231326, 38.123228038867651 ], [ 13.332902141615859, 38.12344334820795 ] ] ] } },
{ "type": "Feature", "properties": { "id": "1275_3_2_3_3_2" }, "geometry": { "type": "Polygon", "coordinates": [ [ [ 13.338724979231326, 38.123228038867651 ], [ 13.339070773829217, 38.129059152827828 ], [ 13.344894009831725, 38.128843511014416 ], [ 13.344547754722155, 38.123012441950472 ], [ 13.338724979231326, 38.123228038867651 ] ] ] } },
{ "type": "Feature", "properties": { "id": "1275_3_2_3_3_3" }, "geometry": { "type": "Polygon", "coordinates": [ [ [ 13.339070773829217, 38.129059152827828 ], [ 13.339416668293687, 38.134890258320972 ], [ 13.345240364940016, 38.134674571604293 ], [ 13.344894009831725, 38.128843511014416 ], [ 13.339070773829217, 38.129059152827828 ] ] ] } },
{ "type": "Feature", "properties": { "id": "1275_3_2_3_3_0" }, "geometry": { "type": "Polygon", "coordinates": [ [ [ 13.333247475682873, 38.129274507004752 ], [ 13.333592909484308, 38.135105657341526 ], [ 13.339416668293687, 38.134890258320972 ], [ 13.339070773829217, 38.129059152827828 ], [ 13.333247475682873, 38.129274507004752 ] ] ] } },
{ "type": "Feature", "properties": { "id": "1275_3_2_3_0_1" }, "geometry": { "type": "Polygon", "coordinates": [ [ [ 13.321256280339862, 38.123873104120356 ], [ 13.321600693287619, 38.129704352411515 ], [ 13.327424115474926, 38.129489573535778 ], [ 13.327079241957966, 38.12365836996198 ], [ 13.321256280339862, 38.123873104120356 ] ] ] } },
{ "type": "Feature", "properties": { "id": "1275_3_2_3_0_2" }, "geometry": { "type": "Polygon", "coordinates": [ [ [ 13.327079241957966, 38.12365836996198 ], [ 13.327424115474926, 38.129489573535778 ], [ 13.333247475682873, 38.129274507004752 ], [ 13.332902141615859, 38.12344334820795 ], [ 13.327079241957966, 38.12365836996198 ] ] ] } },
{ "type": "Feature", "properties": { "id": "1275_3_2_3_0_3" }, "geometry": { "type": "Polygon", "coordinates": [ [ [ 13.327424115474926, 38.129489573535778 ], [ 13.327769088594144, 38.135320768656548 ], [ 13.333592909484308, 38.135105657341526 ], [ 13.333247475682873, 38.129274507004752 ], [ 13.327424115474926, 38.129489573535778 ] ] ] } },
{ "type": "Feature", "properties": { "id": "1275_3_2_3_0_0" }, "geometry": { "type": "Polygon", "coordinates": [ [ [ 13.321600693287619, 38.129704352411515 ], [ 13.321945205705461, 38.135535592256645 ], [ 13.327769088594144, 38.135320768656548 ], [ 13.327424115474926, 38.129489573535778 ], [ 13.321600693287619, 38.129704352411515 ] ] ] } },
{ "type": "Feature", "properties": { "id": "1275_3_2_0_1" }, "geometry": { "type": "Polygon", "coordinates": [ [ [ 13.297278971651632, 38.113066286232005 ], [ 13.297963815909888, 38.124729164610088 ], [ 13.309610171551924, 38.124301709612674 ], [ 13.308923485542456, 38.112639009227394 ], [ 13.297278971651632, 38.113066286232005 ] ] ] } },
{ "type": "Feature", "properties": { "id": "1275_3_2_0_2" }, "geometry": { "type": "Polygon", "coordinates": [ [ [ 13.308923485542456, 38.112639009227394 ], [ 13.309610171551924, 38.124301709612674 ], [ 13.321256280339862, 38.123873104120356 ], [ 13.320567752731678, 38.112210582204874 ], [ 13.308923485542456, 38.112639009227394 ] ] ] } },
{ "type": "Feature", "properties": { "id": "1275_3_2_0_3_1" }, "geometry": { "type": "Polygon", "coordinates": [ [ [ 13.309610171551924, 38.124301709612674 ], [ 13.309953663303922, 38.13013304715966 ], [ 13.315777209203199, 38.129918843622605 ], [ 13.315433256843772, 38.124087550673707 ], [ 13.309610171551924, 38.124301709612674 ] ] ] } },
{ "type": "Feature", "properties": { "id": "1275_3_2_0_3_2" }, "geometry": { "type": "Polygon", "coordinates": [ [ [ 13.315433256843772, 38.124087550673707 ], [ 13.315777209203199, 38.129918843622605 ], [ 13.321600693287619, 38.129704352411515 ], [ 13.321256280339862, 38.123873104120356 ], [ 13.315433256843772, 38.124087550673707 ] ] ] } },
{ "type": "Feature", "properties": { "id": "1275_3_2_0_3_3" }, "geometry": { "type": "Polygon", "coordinates": [ [ [ 13.315777209203199, 38.129918843622605 ], [ 13.316121260900529, 38.135750128132443 ], [ 13.321945205705461, 38.135535592256645 ], [ 13.321600693287619, 38.129704352411515 ], [ 13.315777209203199, 38.129918843622605 ] ] ] } },
{ "type": "Feature", "properties": { "id": "1275_3_2_0_3_0" }, "geometry": { "type": "Polygon", "coordinates": [ [ [ 13.309953663303922, 38.13013304715966 ], [ 13.310297254261632, 38.135964376274579 ], [ 13.316121260900529, 38.135750128132443 ], [ 13.315777209203199, 38.129918843622605 ], [ 13.309953663303922, 38.13013304715966 ] ] ] } },
{ "type": "Feature", "properties": { "id": "1275_3_2_0_0" }, "geometry": { "type": "Polygon", "coordinates": [ [ [ 13.297963815909888, 38.124729164610088 ], [ 13.298649055811071, 38.13639200932046 ], [ 13.310297254261632, 38.135964376274579 ], [ 13.309610171551924, 38.124301709612674 ], [ 13.297963815909888, 38.124729164610088 ] ] ] } },
{ "type": "Feature", "properties": { "id": "1275_3_3_1_1" }, "geometry": { "type": "Polygon", "coordinates": [ [ [ 13.298649055811071, 38.13639200932046 ], [ 13.299334691599821, 38.148054820353195 ], [ 13.31098473391687, 38.147627009203148 ], [ 13.310297254261632, 38.135964376274579 ], [ 13.298649055811071, 38.13639200932046 ] ] ] } },
{ "type": "Feature", "properties": { "id": "1275_3_3_1_2" }, "geometry": { "type": "Polygon", "coordinates": [ [ [ 13.310297254261632, 38.135964376274579 ], [ 13.31098473391687, 38.147627009203148 ], [ 13.322634529074403, 38.147198046603755 ], [ 13.321945205705461, 38.135535592256645 ], [ 13.310297254261632, 38.135964376274579 ] ] ] } },
{ "type": "Feature", "properties": { "id": "1275_3_3_1_3" }, "geometry": { "type": "Polygon", "coordinates": [ [ [ 13.31098473391687, 38.147627009203148 ], [ 13.311672610763157, 38.159289608388448 ], [ 13.323324250692862, 38.158860467151698 ], [ 13.322634529074403, 38.147198046603755 ], [ 13.31098473391687, 38.147627009203148 ] ] ] } },
{ "type": "Feature", "properties": { "id": "1275_3_3_1_0" }, "geometry": { "type": "Polygon", "coordinates": [ [ [ 13.299334691599821, 38.148054820353195 ], [ 13.300020723521019, 38.15971759769841 ], [ 13.311672610763157, 38.159289608388448 ], [ 13.31098473391687, 38.147627009203148 ], [ 13.299334691599821, 38.148054820353195 ] ] ] } },
{ "type": "Feature", "properties": { "id": "1275_3_3_2_1" }, "geometry": { "type": "Polygon", "coordinates": [ [ [ 13.321945205705461, 38.135535592256645 ], [ 13.322634529074403, 38.147198046603755 ], [ 13.334284076413777, 38.146767932629928 ], [ 13.333592909484308, 38.135105657341526 ], [ 13.321945205705461, 38.135535592256645 ] ] ] } },
{ "type": "Feature", "properties": { "id": "1275_3_3_2_2_1" }, "geometry": { "type": "Polygon", "coordinates": [ [ [ 13.333592909484308, 38.135105657341526 ], [ 13.333938443050997, 38.140936799216995 ], [ 13.339762662655604, 38.140721355345796 ], [ 13.339416668293687, 38.134890258320972 ], [ 13.333592909484308, 38.135105657341526 ] ] ] } },
{ "type": "Feature", "properties": { "id": "1275_3_3_2_2_2" }, "geometry": { "type": "Polygon", "coordinates": [ [ [ 13.339416668293687, 38.134890258320972 ], [ 13.339762662655604, 38.140721355345796 ], [ 13.345586820077946, 38.140505623718823 ], [ 13.345240364940016, 38.134674571604293 ], [ 13.339416668293687, 38.134890258320972 ] ] ] } },
{ "type": "Feature", "properties": { "id": "1275_3_3_2_2_3" }, "geometry": { "type": "Polygon", "coordinates": [ [ [ 13.339762662655604, 38.140721355345796 ], [ 13.340108756945853, 38.146552443901065 ], [ 13.345933375276433, 38.146336667356778 ], [ 13.345586820077946, 38.140505623718823 ], [ 13.339762662655604, 38.140721355345796 ] ] ] } },
{ "type": "Feature", "properties": { "id": "1275_3_3_2_2_0" }, "geometry": { "type": "Polygon", "coordinates": [ [ [ 13.333938443050997, 38.140936799216995 ], [ 13.334284076413777, 38.146767932629928 ], [ 13.340108756945853, 38.146552443901065 ], [ 13.339762662655604, 38.140721355345796 ], [ 13.333938443050997, 38.140936799216995 ] ] ] } },
{ "type": "Feature", "properties": { "id": "1275_3_3_2_3" }, "geometry": { "type": "Polygon", "coordinates": [ [ [ 13.334284076413777, 38.146767932629928 ], [ 13.334975642651083, 38.158430174063128 ], [ 13.346626785978859, 38.157998729197878 ], [ 13.345933375276433, 38.146336667356778 ], [ 13.334284076413777, 38.146767932629928 ] ] ] } },
{ "type": "Feature", "properties": { "id": "1275_3_3_2_0" }, "geometry": { "type": "Polygon", "coordinates": [ [ [ 13.322634529074403, 38.147198046603755 ], [ 13.323324250692862, 38.158860467151698 ], [ 13.334975642651083, 38.158430174063128 ], [ 13.334284076413777, 38.146767932629928 ], [ 13.322634529074403, 38.147198046603755 ] ] ] } },
{ "type": "Feature", "properties": { "id": "1275_3_3_3_1" }, "geometry": { "type": "Polygon", "coordinates": [ [ [ 13.323324250692862, 38.158860467151698 ], [ 13.324014370807223, 38.170522853890489 ], [ 13.335667608443257, 38.170092381631086 ], [ 13.334975642651083, 38.158430174063128 ], [ 13.323324250692862, 38.158860467151698 ] ] ] } },
{ "type": "Feature", "properties": { "id": "1275_3_3_3_2" }, "geometry": { "type": "Polygon", "coordinates": [ [ [ 13.334975642651083, 38.158430174063128 ], [ 13.335667608443257, 38.170092381631086 ], [ 13.347320597294978, 38.169660757117519 ], [ 13.346626785978859, 38.157998729197878 ], [ 13.334975642651083, 38.158430174063128 ] ] ] } },
{ "type": "Feature", "properties": { "id": "1275_3_3_3_3" }, "geometry": { "type": "Polygon", "coordinates": [ [ [ 13.335667608443257, 38.170092381631086 ], [ 13.336359974037572, 38.181754555323757 ], [ 13.348014809472708, 38.181322751105604 ], [ 13.347320597294978, 38.169660757117519 ], [ 13.335667608443257, 38.170092381631086 ] ] ] } },
{ "type": "Feature", "properties": { "id": "1275_3_3_3_0" }, "geometry": { "type": "Polygon", "coordinates": [ [ [ 13.324014370807223, 38.170522853890489 ], [ 13.324704889664112, 38.182185206810111 ], [ 13.336359974037572, 38.181754555323757 ], [ 13.335667608443257, 38.170092381631086 ], [ 13.324014370807223, 38.170522853890489 ] ] ] } },
{ "type": "Feature", "properties": { "id": "1275_3_3_0_1" }, "geometry": { "type": "Polygon", "coordinates": [ [ [ 13.300020723521019, 38.15971759769841 ], [ 13.300707151819761, 38.171380341346186 ], [ 13.312360885046239, 38.170952173820524 ], [ 13.311672610763157, 38.159289608388448 ], [ 13.300020723521019, 38.15971759769841 ] ] ] } },
{ "type": "Feature", "properties": { "id": "1275_3_3_0_2_1" }, "geometry": { "type": "Polygon", "coordinates": [ [ [ 13.311672610763157, 38.159289608388448 ], [ 13.31201669820973, 38.165120895324272 ], [ 13.317843010531012, 38.164906424052077 ], [ 13.317498461683256, 38.159075181756243 ], [ 13.311672610763157, 38.159289608388448 ] ] ] } },
{ "type": "Feature", "properties": { "id": "1275_3_3_0_2_2" }, "geometry": { "type": "Polygon", "coordinates": [ [ [ 13.317498461683256, 38.159075181756243 ], [ 13.317843010531012, 38.164906424052077 ], [ 13.323669260922646, 38.164691664747863 ], [ 13.323324250692862, 38.158860467151698 ], [ 13.317498461683256, 38.159075181756243 ] ] ] } },
{ "type": "Feature", "properties": { "id": "1275_3_3_0_2_3" }, "geometry": { "type": "Polygon", "coordinates": [ [ [ 13.317843010531012, 38.164906424052077 ], [ 13.318187658901136, 38.17073765790137 ], [ 13.324014370807223, 38.170522853890489 ], [ 13.323669260922646, 38.164691664747863 ], [ 13.317843010531012, 38.164906424052077 ] ] ] } },
{ "type": "Feature", "properties": { "id": "1275_3_3_0_2_0" }, "geometry": { "type": "Polygon", "coordinates": [ [ [ 13.31201669820973, 38.165120895324272 ], [ 13.312360885046239, 38.170952173820524 ], [ 13.318187658901136, 38.17073765790137 ], [ 13.317843010531012, 38.164906424052077 ], [ 13.31201669820973, 38.165120895324272 ] ] ] } },
{ "type": "Feature", "properties": { "id": "1275_3_3_0_3_1" }, "geometry": { "type": "Polygon", "coordinates": [ [ [ 13.312360885046239, 38.170952173820524 ], [ 13.312705171303438, 38.176783443875991 ], [ 13.318532406824424, 38.17656888330287 ], [ 13.318187658901136, 38.17073765790137 ], [ 13.312360885046239, 38.170952173820524 ] ] ] } },
{ "type": "Feature", "properties": { "id": "1275_3_3_0_3_2" }, "geometry": { "type": "Polygon", "coordinates": [ [ [ 13.318187658901136, 38.17073765790137 ], [ 13.318532406824424, 38.17656888330287 ], [ 13.324359580377429, 38.176354034578324 ], [ 13.324014370807223, 38.170522853890489 ], [ 13.318187658901136, 38.17073765790137 ] ] ] } },
{ "type": "Feature", "properties": { "id": "1275_3_3_0_3_3" }, "geometry": { "type": "Polygon", "coordinates": [ [ [ 13.318532406824424, 38.17656888330287 ], [ 13.318877254331682, 38.182400100255336 ], [ 13.324704889664112, 38.182185206810111 ], [ 13.324359580377429, 38.176354034578324 ], [ 13.318532406824424, 38.17656888330287 ] ] ] } },
{ "type": "Feature", "properties": { "id": "1275_3_3_0_3_0" }, "geometry": { "type": "Polygon", "coordinates": [ [ [ 13.312705171303438, 38.176783443875991 ], [ 13.313049557012095, 38.182614705489407 ], [ 13.318877254331682, 38.182400100255336 ], [ 13.318532406824424, 38.17656888330287 ], [ 13.312705171303438, 38.176783443875991 ] ] ] } },
{ "type": "Feature", "properties": { "id": "1275_3_3_0_0" }, "geometry": { "type": "Polygon", "coordinates": [ [ [ 13.300707151819761, 38.171380341346186 ], [ 13.301393976741377, 38.183043051286589 ], [ 13.313049557012095, 38.182614705489407 ], [ 13.312360885046239, 38.170952173820524 ], [ 13.300707151819761, 38.171380341346186 ] ] ] } },
{ "type": "Feature", "properties": { "id": "1275_3_0_1" }, "geometry": { "type": "Polygon", "coordinates": [ [ [ 13.252053805109529, 38.138091030293047 ], [ 13.253410714612277, 38.161418034178048 ], [ 13.276716209736099, 38.1605701202391 ], [ 13.27535192052318, 38.137243822197583 ], [ 13.252053805109529, 38.138091030293047 ] ] ] } },
{ "type": "Feature", "properties": { "id": "1275_3_0_2" }, "geometry": { "type": "Polygon", "coordinates": [ [ [ 13.27535192052318, 38.137243822197583 ], [ 13.276716209736099, 38.1605701202391 ], [ 13.300020723521019, 38.15971759769841 ], [ 13.298649055811071, 38.13639200932046 ], [ 13.27535192052318, 38.137243822197583 ] ] ] } },
{ "type": "Feature", "properties": { "id": "1275_3_0_3" }, "geometry": { "type": "Polygon", "coordinates": [ [ [ 13.276716209736099, 38.1605701202391 ], [ 13.278082075983709, 38.183896283935375 ], [ 13.301393976741377, 38.183043051286589 ], [ 13.300020723521019, 38.15971759769841 ], [ 13.276716209736099, 38.1605701202391 ] ] ] } },
{ "type": "Feature", "properties": { "id": "1275_3_0_0" }, "geometry": { "type": "Polygon", "coordinates": [ [ [ 13.253410714612277, 38.161418034178048 ], [ 13.254769192671739, 38.18474490415997 ], [ 13.278082075983709, 38.183896283935375 ], [ 13.276716209736099, 38.1605701202391 ], [ 13.253410714612277, 38.161418034178048 ] ] ] } },
{ "type": "Feature", "properties": { "id": "1275_0_1" }, "geometry": { "type": "Polygon", "coordinates": [ [ [ 13.156201486562091, 38.094773828811654 ], [ 13.158851647601102, 38.141433803069766 ], [ 13.205454654982923, 38.139771629774948 ], [ 13.202775009157179, 38.093114422786925 ], [ 13.156201486562091, 38.094773828811654 ] ] ] } },
{ "type": "Feature", "properties": { "id": "1275_0_2" }, "geometry": { "type": "Polygon", "coordinates": [ [ [ 13.202775009157179, 38.093114422786925 ], [ 13.205454654982923, 38.139771629774948 ], [ 13.252053805109529, 38.138091030293047 ], [ 13.249344684020981, 38.091436621125681 ], [ 13.202775009157179, 38.093114422786925 ] ] ] } },
{ "type": "Feature", "properties": { "id": "1275_0_3_1" }, "geometry": { "type": "Polygon", "coordinates": [ [ [ 13.205454654982923, 38.139771629774948 ], [ 13.206796801451651, 38.163100033883602 ], [ 13.230104243425131, 38.162261338922676 ], [ 13.228754714839264, 38.13893363301505 ], [ 13.205454654982923, 38.139771629774948 ] ] ] } },
{ "type": "Feature", "properties": { "id": "1275_0_3_2" }, "geometry": { "type": "Polygon", "coordinates": [ [ [ 13.228754714839264, 38.13893363301505 ], [ 13.230104243425131, 38.162261338922676 ], [ 13.253410714612277, 38.161418034178048 ], [ 13.252053805109529, 38.138091030293047 ], [ 13.228754714839264, 38.13893363301505 ] ] ] } },
{ "type": "Feature", "properties": { "id": "1275_0_3_3" }, "geometry": { "type": "Polygon", "coordinates": [ [ [ 13.230104243425131, 38.162261338922676 ], [ 13.231455332087496, 38.185588911367049 ], [ 13.254769192671739, 38.18474490415997 ], [ 13.253410714612277, 38.161418034178048 ], [ 13.230104243425131, 38.162261338922676 ] ] ] } },
{ "type": "Feature", "properties": { "id": "1275_0_3_0" }, "geometry": { "type": "Polygon", "coordinates": [ [ [ 13.206796801451651, 38.163100033883602 ], [ 13.208140499514414, 38.186428304966476 ], [ 13.231455332087496, 38.185588911367049 ], [ 13.230104243425131, 38.162261338922676 ], [ 13.206796801451651, 38.163100033883602 ] ] ] } },
{ "type": "Feature", "properties": { "id": "1275_0_0_1" }, "geometry": { "type": "Polygon", "coordinates": [ [ [ 13.158851647601102, 38.141433803069766 ], [ 13.160179026260538, 38.164763592112685 ], [ 13.183488393970199, 38.163934118474621 ], [ 13.182153630812433, 38.140605019987284 ], [ 13.158851647601102, 38.141433803069766 ] ] ] } },
{ "type": "Feature", "properties": { "id": "1275_0_0_2" }, "geometry": { "type": "Polygon", "coordinates": [ [ [ 13.182153630812433, 38.140605019987284 ], [ 13.183488393970199, 38.163934118474621 ], [ 13.206796801451651, 38.163100033883602 ], [ 13.205454654982923, 38.139771629774948 ], [ 13.182153630812433, 38.140605019987284 ] ] ] } },
{ "type": "Feature", "properties": { "id": "1275_0_0_3" }, "geometry": { "type": "Polygon", "coordinates": [ [ [ 13.183488393970199, 38.163934118474621 ], [ 13.184824700237323, 38.187263084371288 ], [ 13.208140499514414, 38.186428304966476 ], [ 13.206796801451651, 38.163100033883602 ], [ 13.183488393970199, 38.163934118474621 ] ] ] } },
{ "type": "Feature", "properties": { "id": "1275_0_0_0" }, "geometry": { "type": "Polygon", "coordinates": [ [ [ 13.160179026260538, 38.164763592112685 ], [ 13.161507939542441, 38.188093248997703 ], [ 13.184824700237323, 38.187263084371288 ], [ 13.183488393970199, 38.163934118474621 ], [ 13.160179026260538, 38.164763592112685 ] ] ] } },
{ "type": "Feature", "properties": { "id": "1276_1_1" }, "geometry": { "type": "Polygon", "coordinates": [ [ [ 12.964823023719966, 38.007884387160239 ], [ 12.967343477126478, 38.054556152753619 ], [ 13.013902515463256, 38.052973016750677 ], [ 13.011352675590233, 38.006303889506363 ], [ 12.964823023719966, 38.007884387160239 ] ] ] } },
{ "type": "Feature", "properties": { "id": "1276_1_2" }, "geometry": { "type": "Polygon", "coordinates": [ [ [ 13.011352675590233, 38.006303889506363 ], [ 13.013902515463256, 38.052973016750677 ], [ 13.060457883632353, 38.051371497439874 ], [ 13.057878666337027, 38.004705039066621 ], [ 13.011352675590233, 38.006303889506363 ] ] ] } },
{ "type": "Feature", "properties": { "id": "1276_1_3" }, "geometry": { "type": "Polygon", "coordinates": [ [ [ 13.013902515463256, 38.052973016750677 ], [ 13.016458253387944, 38.099641626982432 ], [ 13.063043066555929, 38.098037435467155 ], [ 13.060457883632353, 38.051371497439874 ], [ 13.013902515463256, 38.052973016750677 ] ] ] } },
{ "type": "Feature", "properties": { "id": "1276_2_1" }, "geometry": { "type": "Polygon", "coordinates": [ [ [ 13.057878666337027, 38.004705039066621 ], [ 13.060457883632353, 38.051371497439874 ], [ 13.107009539582988, 38.049751599291412 ], [ 13.104400954012011, 38.003087840299827 ], [ 13.057878666337027, 38.004705039066621 ] ] ] } },
{ "type": "Feature", "properties": { "id": "1276_2_2" }, "geometry": { "type": "Polygon", "coordinates": [ [ [ 13.104400954012011, 38.003087840299827 ], [ 13.107009539582988, 38.049751599291412 ], [ 13.153557441285583, 38.048113326826112 ], [ 13.150919496687942, 38.001452297715275 ], [ 13.104400954012011, 38.003087840299827 ] ] ] } },
{ "type": "Feature", "properties": { "id": "1276_2_3" }, "geometry": { "type": "Polygon", "coordinates": [ [ [ 13.107009539582988, 38.049751599291412 ], [ 13.109624158324747, 38.096414834566097 ], [ 13.156201486562091, 38.094773828811654 ], [ 13.153557441285583, 38.048113326826112 ], [ 13.107009539582988, 38.049751599291412 ] ] ] } },
{ "type": "Feature", "properties": { "id": "1276_2_0" }, "geometry": { "type": "Polygon", "coordinates": [ [ [ 13.060457883632353, 38.051371497439874 ], [ 13.063043066555929, 38.098037435467155 ], [ 13.109624158324747, 38.096414834566097 ], [ 13.107009539582988, 38.049751599291412 ], [ 13.060457883632353, 38.051371497439874 ] ] ] } },
{ "type": "Feature", "properties": { "id": "1276_3_1" }, "geometry": { "type": "Polygon", "coordinates": [ [ [ 13.063043066555929, 38.098037435467155 ], [ 13.0656342298614, 38.144702852566439 ], [ 13.112244825155999, 38.143077545531867 ], [ 13.109624158324747, 38.096414834566097 ], [ 13.063043066555929, 38.098037435467155 ] ] ] } },
{ "type": "Feature", "properties": { "id": "1276_3_2" }, "geometry": { "type": "Polygon", "coordinates": [ [ [ 13.109624158324747, 38.096414834566097 ], [ 13.112244825155999, 38.143077545531867 ], [ 13.158851647601102, 38.141433803069766 ], [ 13.156201486562091, 38.094773828811654 ], [ 13.109624158324747, 38.096414834566097 ] ] ] } },
{ "type": "Feature", "properties": { "id": "1276_3_3" }, "geometry": { "type": "Polygon", "coordinates": [ [ [ 13.112244825155999, 38.143077545531867 ], [ 13.114871555051041, 38.189739731596141 ], [ 13.161507939542441, 38.188093248997703 ], [ 13.158851647601102, 38.141433803069766 ], [ 13.112244825155999, 38.143077545531867 ] ] ] } },
{ "type": "Feature", "properties": { "id": "1276_3_0_1" }, "geometry": { "type": "Polygon", "coordinates": [ [ [ 13.0656342298614, 38.144702852566439 ], [ 13.066932058782882, 38.168035365586064 ], [ 13.090245214580429, 38.167224341526541 ], [ 13.088939996475677, 38.143892503762785 ], [ 13.0656342298614, 38.144702852566439 ] ] ] } },
{ "type": "Feature", "properties": { "id": "1276_3_0_2" }, "geometry": { "type": "Polygon", "coordinates": [ [ [ 13.088939996475677, 38.143892503762785 ], [ 13.090245214580429, 38.167224341526541 ], [ 13.113557431282473, 38.166408704213744 ], [ 13.112244825155999, 38.143077545531867 ], [ 13.088939996475677, 38.143892503762785 ] ] ] } },
{ "type": "Feature", "properties": { "id": "1276_3_0_3" }, "geometry": { "type": "Polygon", "coordinates": [ [ [ 13.090245214580429, 38.167224341526541 ], [ 13.091551941833819, 38.190556048416518 ], [ 13.114871555051041, 38.189739731596141 ], [ 13.113557431282473, 38.166408704213744 ], [ 13.090245214580429, 38.167224341526541 ] ] ] } },
{ "type": "Feature", "properties": { "id": "1276_3_0_0" }, "geometry": { "type": "Polygon", "coordinates": [ [ [ 13.066932058782882, 38.168035365586064 ], [ 13.068231388357381, 38.191367748155209 ], [ 13.091551941833819, 38.190556048416518 ], [ 13.090245214580429, 38.167224341526541 ], [ 13.066932058782882, 38.168035365586064 ] ] ] } },
{ "type": "Feature", "properties": { "id": "1798" }, "geometry": { "type": "Polygon", "coordinates": [ [ [ 13.161507939542441, 38.188093248997703 ], [ 13.17219472110836, 38.374725737333144 ], [ 13.35917692469185, 38.367910031986213 ], [ 13.348014809472708, 38.181322751105604 ], [ 13.161507939542441, 38.188093248997703 ] ] ] } }
]
}
