{
"type": "FeatureCollection",
"crs": { "type": "name", "properties": { "name": "urn:ogc:def:crs:OGC:1.3:CRS84" } },
                                                                                
"features": [
{ "type": "Feature", "properties": { "id": "1769_3" }, "geometry": { "type": "Polygon", "coordinates": [ [ [ 17.090009816524297, 40.690065014637582 ], [ 17.101309501909611, 40.782655506855917 ], [ 17.19737998297224, 40.775824783286261 ], [ 17.185949946091483, 40.683256430104613 ], [ 17.090009816524297, 40.690065014637582 ] ] ] } },
{ "type": "Feature", "properties": { "id": "1769_0" }, "geometry": { "type": "Polygon", "coordinates": [ [ [ 16.994037081636165, 40.69679476196746 ], [ 17.005206244165862, 40.789407141295577 ], [ 17.101309501909611, 40.782655506855917 ], [ 17.090009816524297, 40.690065014637582 ], [ 16.994037081636165, 40.69679476196746 ] ] ] } },
{ "type": "Feature", "properties": { "id": "1770_3_0" }, "geometry": { "type": "Polygon", "coordinates": [ [ [ 17.287630496812607, 40.722642593939696 ], [ 17.293417318739586, 40.76891504994849 ], [ 17.341423442170534, 40.765430579654158 ], [ 17.335604071645097, 40.719163772198087 ], [ 17.287630496812607, 40.722642593939696 ] ] ] } },
{ "type": "Feature", "properties": { "id": "1770_0" }, "geometry": { "type": "Polygon", "coordinates": [ [ [ 17.185949946091483, 40.683256430104613 ], [ 17.19737998297224, 40.775824783286261 ], [ 17.293417318739586, 40.76891504994849 ], [ 17.281857103556256, 40.676369087319543 ], [ 17.185949946091483, 40.683256430104613 ] ] ] } },
{ "type": "Feature", "properties": { "id": "1771_1" }, "geometry": { "type": "Polygon", "coordinates": [ [ [ 17.19737998297224, 40.775824783286261 ], [ 17.208863284581273, 40.868388986349103 ], [ 17.305031389630205, 40.861456801630958 ], [ 17.293417318739586, 40.76891504994849 ], [ 17.19737998297224, 40.775824783286261 ] ] ] } },
{ "type": "Feature", "properties": { "id": "1771_2_1" }, "geometry": { "type": "Polygon", "coordinates": [ [ [ 17.293417318739586, 40.76891504994849 ], [ 17.299217604559704, 40.815186453222267 ], [ 17.347256350335762, 40.811696326712124 ], [ 17.341423442170534, 40.765430579654158 ], [ 17.293417318739586, 40.76891504994849 ] ] ] } },
{ "type": "Feature", "properties": { "id": "1771_2_0" }, "geometry": { "type": "Polygon", "coordinates": [ [ [ 17.299217604559704, 40.815186453222267 ], [ 17.305031389630205, 40.861456801630958 ], [ 17.353102831681689, 40.857961011218876 ], [ 17.347256350335762, 40.811696326712124 ], [ 17.299217604559704, 40.815186453222267 ] ] ] } },
{ "type": "Feature", "properties": { "id": "1771_3_1" }, "geometry": { "type": "Polygon", "coordinates": [ [ [ 17.305031389630205, 40.861456801630958 ], [ 17.310858709443668, 40.907726093038043 ], [ 17.358962921885219, 40.90422463101482 ], [ 17.353102831681689, 40.857961011218876 ], [ 17.305031389630205, 40.861456801630958 ] ] ] } },
{ "type": "Feature", "properties": { "id": "1771_3_0" }, "geometry": { "type": "Polygon", "coordinates": [ [ [ 17.310858709443668, 40.907726093038043 ], [ 17.316699599628627, 40.953994325300563 ], [ 17.364836656759874, 40.950487183933788 ], [ 17.358962921885219, 40.90422463101482 ], [ 17.310858709443668, 40.907726093038043 ] ] ] } },
{ "type": "Feature", "properties": { "id": "1771_0_1" }, "geometry": { "type": "Polygon", "coordinates": [ [ [ 17.208863284581273, 40.868388986349103 ], [ 17.214624997214784, 40.914669526371114 ], [ 17.262746052455849, 40.911207728201568 ], [ 17.256951525204194, 40.864932796710356 ], [ 17.208863284581273, 40.868388986349103 ] ] ] } },
{ "type": "Feature", "properties": { "id": "1771_0_2" }, "geometry": { "type": "Polygon", "coordinates": [ [ [ 17.256951525204194, 40.864932796710356 ], [ 17.262746052455849, 40.911207728201568 ], [ 17.310858709443668, 40.907726093038043 ], [ 17.305031389630205, 40.861456801630958 ], [ 17.256951525204194, 40.864932796710356 ] ] ] } },
{ "type": "Feature", "properties": { "id": "1771_0_3" }, "geometry": { "type": "Polygon", "coordinates": [ [ [ 17.262746052455849, 40.911207728201568 ], [ 17.268554075694365, 40.957481608240521 ], [ 17.316699599628627, 40.953994325300563 ], [ 17.310858709443668, 40.907726093038043 ], [ 17.262746052455849, 40.911207728201568 ] ] ] } },
{ "type": "Feature", "properties": { "id": "1771_0_0" }, "geometry": { "type": "Polygon", "coordinates": [ [ [ 17.214624997214784, 40.914669526371114 ], [ 17.220400131365935, 40.960949022593006 ], [ 17.268554075694365, 40.957481608240521 ], [ 17.262746052455849, 40.911207728201568 ], [ 17.214624997214784, 40.914669526371114 ] ] ] } },
{ "type": "Feature", "properties": { "id": "1772_1_1" }, "geometry": { "type": "Polygon", "coordinates": [ [ [ 17.005206244165862, 40.789407141295577 ], [ 17.010810337872879, 40.835711820562892 ], [ 17.058898793398697, 40.832340427267312 ], [ 17.053261947052544, 40.7860412151432 ], [ 17.005206244165862, 40.789407141295577 ] ] ] } },
{ "type": "Feature", "properties": { "id": "1772_1_2" }, "geometry": { "type": "Polygon", "coordinates": [ [ [ 17.053261947052544, 40.7860412151432 ], [ 17.058898793398697, 40.832340427267312 ], [ 17.106979079467244, 40.828949220260263 ], [ 17.101309501909611, 40.782655506855917 ], [ 17.053261947052544, 40.7860412151432 ] ] ] } },
{ "type": "Feature", "properties": { "id": "1772_1_3" }, "geometry": { "type": "Polygon", "coordinates": [ [ [ 17.058898793398697, 40.832340427267312 ], [ 17.064548768088532, 40.878638622357386 ], [ 17.11266185971586, 40.87524190914457 ], [ 17.106979079467244, 40.828949220260263 ], [ 17.058898793398697, 40.832340427267312 ] ] ] } },
{ "type": "Feature", "properties": { "id": "1772_1_0" }, "geometry": { "type": "Polygon", "coordinates": [ [ [ 17.010810337872879, 40.835711820562892 ], [ 17.016427485494113, 40.882015490241905 ], [ 17.064548768088532, 40.878638622357386 ], [ 17.058898793398697, 40.832340427267312 ], [ 17.010810337872879, 40.835711820562892 ] ] ] } },
{ "type": "Feature", "properties": { "id": "1772_2_1" }, "geometry": { "type": "Polygon", "coordinates": [ [ [ 17.101309501909611, 40.782655506855917 ], [ 17.106979079467244, 40.828949220260263 ], [ 17.155051149809591, 40.825538209406183 ], [ 17.149348862583654, 40.779250026272557 ], [ 17.101309501909611, 40.782655506855917 ] ] ] } },
{ "type": "Feature", "properties": { "id": "1772_2_2" }, "geometry": { "type": "Polygon", "coordinates": [ [ [ 17.149348862583654, 40.779250026272557 ], [ 17.155051149809591, 40.825538209406183 ], [ 17.203114958208015, 40.822107404623935 ], [ 17.19737998297224, 40.775824783286261 ], [ 17.149348862583654, 40.779250026272557 ] ] ] } },
{ "type": "Feature", "properties": { "id": "1772_2_3" }, "geometry": { "type": "Polygon", "coordinates": [ [ [ 17.155051149809591, 40.825538209406183 ], [ 17.160766713991247, 40.871825360493581 ], [ 17.208863284581273, 40.868388986349103 ], [ 17.203114958208015, 40.822107404623935 ], [ 17.155051149809591, 40.825538209406183 ] ] ] } },
{ "type": "Feature", "properties": { "id": "1772_2_0" }, "geometry": { "type": "Polygon", "coordinates": [ [ [ 17.106979079467244, 40.828949220260263 ], [ 17.11266185971586, 40.87524190914457 ], [ 17.160766713991247, 40.871825360493581 ], [ 17.155051149809591, 40.825538209406183 ], [ 17.106979079467244, 40.828949220260263 ] ] ] } },
{ "type": "Feature", "properties": { "id": "1772_3_1" }, "geometry": { "type": "Polygon", "coordinates": [ [ [ 17.11266185971586, 40.87524190914457 ], [ 17.11835787740689, 40.92153357146362 ], [ 17.166495590065921, 40.91811147746688 ], [ 17.160766713991247, 40.871825360493581 ], [ 17.11266185971586, 40.87524190914457 ] ] ] } },
{ "type": "Feature", "properties": { "id": "1772_3_2" }, "geometry": { "type": "Polygon", "coordinates": [ [ [ 17.160766713991247, 40.871825360493581 ], [ 17.166495590065921, 40.91811147746688 ], [ 17.214624997214784, 40.914669526371114 ], [ 17.208863284581273, 40.868388986349103 ], [ 17.160766713991247, 40.871825360493581 ] ] ] } },
{ "type": "Feature", "properties": { "id": "1772_3_3" }, "geometry": { "type": "Polygon", "coordinates": [ [ [ 17.166495590065921, 40.91811147746688 ], [ 17.172237813104854, 40.964396558251963 ], [ 17.220400131365935, 40.960949022593006 ], [ 17.214624997214784, 40.914669526371114 ], [ 17.166495590065921, 40.91811147746688 ] ] ] } },
{ "type": "Feature", "properties": { "id": "1772_3_0" }, "geometry": { "type": "Polygon", "coordinates": [ [ [ 17.11835787740689, 40.92153357146362 ], [ 17.12406716742505, 40.967824205166011 ], [ 17.172237813104854, 40.964396558251963 ], [ 17.166495590065921, 40.91811147746688 ], [ 17.11835787740689, 40.92153357146362 ] ] ] } },
{ "type": "Feature", "properties": { "id": "1772_0_1" }, "geometry": { "type": "Polygon", "coordinates": [ [ [ 17.016427485494113, 40.882015490241905 ], [ 17.022057721408142, 40.928318148332345 ], [ 17.070211905687227, 40.924935798390734 ], [ 17.064548768088532, 40.878638622357386 ], [ 17.016427485494113, 40.882015490241905 ] ] ] } },
{ "type": "Feature", "properties": { "id": "1772_0_2" }, "geometry": { "type": "Polygon", "coordinates": [ [ [ 17.064548768088532, 40.878638622357386 ], [ 17.070211905687227, 40.924935798390734 ], [ 17.11835787740689, 40.92153357146362 ], [ 17.11266185971586, 40.87524190914457 ], [ 17.064548768088532, 40.878638622357386 ] ] ] } },
{ "type": "Feature", "properties": { "id": "1772_0_3" }, "geometry": { "type": "Polygon", "coordinates": [ [ [ 17.070211905687227, 40.924935798390734 ], [ 17.075888240892596, 40.971231953338581 ], [ 17.12406716742505, 40.967824205166011 ], [ 17.11835787740689, 40.92153357146362 ], [ 17.070211905687227, 40.924935798390734 ] ] ] } },
{ "type": "Feature", "properties": { "id": "1772_0_0" }, "geometry": { "type": "Polygon", "coordinates": [ [ [ 17.022057721408142, 40.928318148332345 ], [ 17.027701080125485, 40.974619792827923 ], [ 17.075888240892596, 40.971231953338581 ], [ 17.070211905687227, 40.924935798390734 ], [ 17.022057721408142, 40.928318148332345 ] ] ] } },
{ "type": "Feature", "properties": { "id": "1773_3" }, "geometry": { "type": "Polygon", "coordinates": [ [ [ 16.705926924932101, 40.716510204217357 ], [ 16.716703509171204, 40.809186729268347 ], [ 16.812902877160393, 40.802672829685612 ], [ 16.801995267054807, 40.710017433540976 ], [ 16.705926924932101, 40.716510204217357 ] ] ] } },
{ "type": "Feature", "properties": { "id": "1773_0" }, "geometry": { "type": "Polygon", "coordinates": [ [ [ 16.60982745261316, 40.722923830561228 ], [ 16.620472847029522, 40.815621230990949 ], [ 16.716703509171204, 40.809186729268347 ], [ 16.705926924932101, 40.716510204217357 ], [ 16.60982745261316, 40.722923830561228 ] ] ] } },
{ "type": "Feature", "properties": { "id": "1774_3" }, "geometry": { "type": "Polygon", "coordinates": [ [ [ 16.898032109016548, 40.703445594008137 ], [ 16.909070579170539, 40.796079608112471 ], [ 17.005206244165862, 40.789407141295577 ], [ 16.994037081636165, 40.69679476196746 ], [ 16.898032109016548, 40.703445594008137 ] ] ] } },
{ "type": "Feature", "properties": { "id": "1774_0" }, "geometry": { "type": "Polygon", "coordinates": [ [ [ 16.801995267054807, 40.710017433540976 ], [ 16.812902877160393, 40.802672829685612 ], [ 16.909070579170539, 40.796079608112471 ], [ 16.898032109016548, 40.703445594008137 ], [ 16.801995267054807, 40.710017433540976 ] ] ] } },
{ "type": "Feature", "properties": { "id": "1775_1_1" }, "geometry": { "type": "Polygon", "coordinates": [ [ [ 16.812902877160393, 40.802672829685612 ], [ 16.81837574835259, 40.84899906125279 ], [ 16.866496418003443, 40.845707020355256 ], [ 16.860990709621213, 40.799386129371698 ], [ 16.812902877160393, 40.802672829685612 ] ] ] } },
{ "type": "Feature", "properties": { "id": "1775_1_2" }, "geometry": { "type": "Polygon", "coordinates": [ [ [ 16.860990709621213, 40.799386129371698 ], [ 16.866496418003443, 40.845707020355256 ], [ 16.914609103779497, 40.842395126834781 ], [ 16.909070579170539, 40.796079608112471 ], [ 16.860990709621213, 40.799386129371698 ] ] ] } },
{ "type": "Feature", "properties": { "id": "1775_1_3" }, "geometry": { "type": "Polygon", "coordinates": [ [ [ 16.866496418003443, 40.845707020355256 ], [ 16.872014956522829, 40.892026923845272 ], [ 16.920160533198995, 40.888709650739109 ], [ 16.914609103779497, 40.842395126834781 ], [ 16.866496418003443, 40.845707020355256 ] ] ] } },
{ "type": "Feature", "properties": { "id": "1775_1_0" }, "geometry": { "type": "Polygon", "coordinates": [ [ [ 16.81837574835259, 40.84899906125279 ], [ 16.823861374928104, 40.895324312610263 ], [ 16.872014956522829, 40.892026923845272 ], [ 16.866496418003443, 40.845707020355256 ], [ 16.81837574835259, 40.84899906125279 ] ] ] } },
{ "type": "Feature", "properties": { "id": "1775_2_1" }, "geometry": { "type": "Polygon", "coordinates": [ [ [ 16.909070579170539, 40.796079608112471 ], [ 16.914609103779497, 40.842395126834781 ], [ 16.962713759209635, 40.839063390337138 ], [ 16.957142439453676, 40.792753275528639 ], [ 16.909070579170539, 40.796079608112471 ] ] ] } },
{ "type": "Feature", "properties": { "id": "1775_2_2" }, "geometry": { "type": "Polygon", "coordinates": [ [ [ 16.957142439453676, 40.792753275528639 ], [ 16.962713759209635, 40.839063390337138 ], [ 17.010810337872879, 40.835711820562892 ], [ 17.005206244165862, 40.789407141295577 ], [ 16.957142439453676, 40.792753275528639 ] ] ] } },
{ "type": "Feature", "properties": { "id": "1775_2_3" }, "geometry": { "type": "Polygon", "coordinates": [ [ [ 16.962713759209635, 40.839063390337138 ], [ 16.968298058368617, 40.88537250296271 ], [ 17.016427485494113, 40.882015490241905 ], [ 17.010810337872879, 40.835711820562892 ], [ 16.962713759209635, 40.839063390337138 ] ] ] } },
{ "type": "Feature", "properties": { "id": "1775_2_0" }, "geometry": { "type": "Polygon", "coordinates": [ [ [ 16.914609103779497, 40.842395126834781 ], [ 16.920160533198995, 40.888709650739109 ], [ 16.968298058368617, 40.88537250296271 ], [ 16.962713759209635, 40.839063390337138 ], [ 16.914609103779497, 40.842395126834781 ] ] ] } },
{ "type": "Feature", "properties": { "id": "1775_3_1" }, "geometry": { "type": "Polygon", "coordinates": [ [ [ 16.920160533198995, 40.888709650739109 ], [ 16.92572490143327, 40.935023177869681 ], [ 16.973895371122236, 40.931680611427382 ], [ 16.968298058368617, 40.88537250296271 ], [ 16.920160533198995, 40.888709650739109 ] ] ] } },
{ "type": "Feature", "properties": { "id": "1775_3_2" }, "geometry": { "type": "Polygon", "coordinates": [ [ [ 16.968298058368617, 40.88537250296271 ], [ 16.973895371122236, 40.931680611427382 ], [ 17.022057721408142, 40.928318148332345 ], [ 17.016427485494113, 40.882015490241905 ], [ 16.968298058368617, 40.88537250296271 ] ] ] } },
{ "type": "Feature", "properties": { "id": "1775_3_3" }, "geometry": { "type": "Polygon", "coordinates": [ [ [ 16.973895371122236, 40.931680611427382 ], [ 16.979505731793321, 40.977987713747275 ], [ 17.027701080125485, 40.974619792827923 ], [ 17.022057721408142, 40.928318148332345 ], [ 16.973895371122236, 40.931680611427382 ] ] ] } },
{ "type": "Feature", "properties": { "id": "1775_3_0" }, "geometry": { "type": "Polygon", "coordinates": [ [ [ 16.92572490143327, 40.935023177869681 ], [ 16.931302242617111, 40.981335706264886 ], [ 16.979505731793321, 40.977987713747275 ], [ 16.973895371122236, 40.931680611427382 ], [ 16.92572490143327, 40.935023177869681 ] ] ] } },
{ "type": "Feature", "properties": { "id": "1775_0_1" }, "geometry": { "type": "Polygon", "coordinates": [ [ [ 16.823861374928104, 40.895324312610263 ], [ 16.829359790515348, 40.941648581846287 ], [ 16.877546358995879, 40.938345837908031 ], [ 16.872014956522829, 40.892026923845272 ], [ 16.823861374928104, 40.895324312610263 ] ] ] } },
{ "type": "Feature", "properties": { "id": "1775_0_2" }, "geometry": { "type": "Polygon", "coordinates": [ [ [ 16.872014956522829, 40.892026923845272 ], [ 16.877546358995879, 40.938345837908031 ], [ 16.92572490143327, 40.935023177869681 ], [ 16.920160533198995, 40.888709650739109 ], [ 16.872014956522829, 40.892026923845272 ] ] ] } },
{ "type": "Feature", "properties": { "id": "1775_0_3" }, "geometry": { "type": "Polygon", "coordinates": [ [ [ 16.877546358995879, 40.938345837908031 ], [ 16.883090659368985, 40.984663760604093 ], [ 16.931302242617111, 40.981335706264886 ], [ 16.92572490143327, 40.935023177869681 ], [ 16.877546358995879, 40.938345837908031 ] ] ] } },
{ "type": "Feature", "properties": { "id": "1775_0_0" }, "geometry": { "type": "Polygon", "coordinates": [ [ [ 16.829359790515348, 40.941648581846287 ], [ 16.834871028871913, 40.987971867043456 ], [ 16.883090659368985, 40.984663760604093 ], [ 16.877546358995879, 40.938345837908031 ], [ 16.829359790515348, 40.941648581846287 ] ] ] } },
{ "type": "Feature", "properties": { "id": "1776_1" }, "geometry": { "type": "Polygon", "coordinates": [ [ [ 16.620472847029522, 40.815621230990949 ], [ 16.631167932872742, 40.908314832766827 ], [ 16.727530383585368, 40.901859398708147 ], [ 16.716703509171204, 40.809186729268347 ], [ 16.620472847029522, 40.815621230990949 ] ] ] } },
{ "type": "Feature", "properties": { "id": "1776_2" }, "geometry": { "type": "Polygon", "coordinates": [ [ [ 16.716703509171204, 40.809186729268347 ], [ 16.727530383585368, 40.901859398708147 ], [ 16.823861374928104, 40.895324312610263 ], [ 16.812902877160393, 40.802672829685612 ], [ 16.716703509171204, 40.809186729268347 ] ] ] } },
{ "type": "Feature", "properties": { "id": "1776_3_1" }, "geometry": { "type": "Polygon", "coordinates": [ [ [ 16.727530383585368, 40.901859398708147 ], [ 16.732962762497493, 40.948194282913704 ], [ 16.781165242747303, 40.944931400043451 ], [ 16.775699835052947, 40.898601807418174 ], [ 16.727530383585368, 40.901859398708147 ] ] ] } },
{ "type": "Feature", "properties": { "id": "1776_3_2" }, "geometry": { "type": "Polygon", "coordinates": [ [ [ 16.775699835052947, 40.898601807418174 ], [ 16.781165242747303, 40.944931400043451 ], [ 16.829359790515348, 40.941648581846287 ], [ 16.823861374928104, 40.895324312610263 ], [ 16.775699835052947, 40.898601807418174 ] ] ] } },
{ "type": "Feature", "properties": { "id": "1776_3_3" }, "geometry": { "type": "Polygon", "coordinates": [ [ [ 16.781165242747303, 40.944931400043451 ], [ 16.78664339799948, 40.991260015916794 ], [ 16.834871028871913, 40.987971867043456 ], [ 16.829359790515348, 40.941648581846287 ], [ 16.781165242747303, 40.944931400043451 ] ] ] } },
{ "type": "Feature", "properties": { "id": "1776_3_0" }, "geometry": { "type": "Polygon", "coordinates": [ [ [ 16.732962762497493, 40.948194282913704 ], [ 16.738407813675604, 40.994528197613278 ], [ 16.78664339799948, 40.991260015916794 ], [ 16.781165242747303, 40.944931400043451 ], [ 16.732962762497493, 40.948194282913704 ] ] ] } },
{ "type": "Feature", "properties": { "id": "1776_0_1" }, "geometry": { "type": "Polygon", "coordinates": [ [ [ 16.631167932872742, 40.908314832766827 ], [ 16.636534192024513, 40.954660204606917 ], [ 16.684752396621509, 40.951437220926572 ], [ 16.679353067262976, 40.905097076974513 ], [ 16.631167932872742, 40.908314832766827 ] ] ] } },
{ "type": "Feature", "properties": { "id": "1776_0_2" }, "geometry": { "type": "Polygon", "coordinates": [ [ [ 16.679353067262976, 40.905097076974513 ], [ 16.684752396621509, 40.951437220926572 ], [ 16.732962762497493, 40.948194282913704 ], [ 16.727530383585368, 40.901859398708147 ], [ 16.679353067262976, 40.905097076974513 ] ] ] } },
{ "type": "Feature", "properties": { "id": "1776_0_3" }, "geometry": { "type": "Polygon", "coordinates": [ [ [ 16.684752396621509, 40.951437220926572 ], [ 16.690164322874267, 40.997776402577529 ], [ 16.738407813675604, 40.994528197613278 ], [ 16.732962762497493, 40.948194282913704 ], [ 16.684752396621509, 40.951437220926572 ] ] ] } },
{ "type": "Feature", "properties": { "id": "1776_0_0" }, "geometry": { "type": "Polygon", "coordinates": [ [ [ 16.636534192024513, 40.954660204606917 ], [ 16.64191297261927, 41.001004621309669 ], [ 16.690164322874267, 40.997776402577529 ], [ 16.684752396621509, 40.951437220926572 ], [ 16.636534192024513, 40.954660204606917 ] ] ] } },
{ "type": "Feature", "properties": { "id": "1785_3" }, "geometry": { "type": "Polygon", "coordinates": [ [ [ 16.321345965706691, 40.741689101978508 ], [ 16.33159682564154, 40.834447603507364 ], [ 16.427919131498765, 40.828251741776562 ], [ 16.417536601113966, 40.735513352725164 ], [ 16.321345965706691, 40.741689101978508 ] ] ] } },
{ "type": "Feature", "properties": { "id": "1786_3" }, "geometry": { "type": "Polygon", "coordinates": [ [ [ 16.513697220838065, 40.729258237971621 ], [ 16.524211263344341, 40.821976259863128 ], [ 16.620472847029522, 40.815621230990949 ], [ 16.60982745261316, 40.722923830561228 ], [ 16.513697220838065, 40.729258237971621 ] ] ] } },
{ "type": "Feature", "properties": { "id": "1786_0" }, "geometry": { "type": "Polygon", "coordinates": [ [ [ 16.417536601113966, 40.735513352725164 ], [ 16.427919131498765, 40.828251741776562 ], [ 16.524211263344341, 40.821976259863128 ], [ 16.513697220838065, 40.729258237971621 ], [ 16.417536601113966, 40.735513352725164 ] ] ] } },
{ "type": "Feature", "properties": { "id": "1787_1" }, "geometry": { "type": "Polygon", "coordinates": [ [ [ 16.427919131498765, 40.828251741776562 ], [ 16.438350152085434, 40.920986444124509 ], [ 16.534774397281829, 40.914690539404191 ], [ 16.524211263344341, 40.821976259863128 ], [ 16.427919131498765, 40.828251741776562 ] ] ] } },
{ "type": "Feature", "properties": { "id": "1787_2" }, "geometry": { "type": "Polygon", "coordinates": [ [ [ 16.524211263344341, 40.821976259863128 ], [ 16.534774397281829, 40.914690539404191 ], [ 16.631167932872742, 40.908314832766827 ], [ 16.620472847029522, 40.815621230990949 ], [ 16.524211263344341, 40.821976259863128 ] ] ] } },
{ "type": "Feature", "properties": { "id": "1787_3" }, "geometry": { "type": "Polygon", "coordinates": [ [ [ 16.534774397281829, 40.914690539404191 ], [ 16.545386882090906, 41.007401062356166 ], [ 16.64191297261927, 41.001004621309669 ], [ 16.631167932872742, 40.908314832766827 ], [ 16.534774397281829, 40.914690539404191 ] ] ] } },
{ "type": "Feature", "properties": { "id": "1787_0" }, "geometry": { "type": "Polygon", "coordinates": [ [ [ 16.438350152085434, 40.920986444124509 ], [ 16.448829919266899, 41.013717445867137 ], [ 16.545386882090906, 41.007401062356166 ], [ 16.534774397281829, 40.914690539404191 ], [ 16.438350152085434, 40.920986444124509 ] ] ] } },
{ "type": "Feature", "properties": { "id": "1788_2" }, "geometry": { "type": "Polygon", "coordinates": [ [ [ 16.33159682564154, 40.834447603507364 ], [ 16.341895573329058, 40.927202473320904 ], [ 16.438350152085434, 40.920986444124509 ], [ 16.427919131498765, 40.828251741776562 ], [ 16.33159682564154, 40.834447603507364 ] ] ] } },
{ "type": "Feature", "properties": { "id": "1788_3" }, "geometry": { "type": "Polygon", "coordinates": [ [ [ 16.341895573329058, 40.927202473320904 ], [ 16.352242462103469, 41.019953697850262 ], [ 16.448829919266899, 41.013717445867137 ], [ 16.438350152085434, 40.920986444124509 ], [ 16.341895573329058, 40.927202473320904 ] ] ] } },
{ "type": "Feature", "properties": { "id": "2309_2" }, "geometry": { "type": "Polygon", "coordinates": [ [ [ 16.352242462103469, 41.019953697850262 ], [ 16.362637747254762, 41.112701263448066 ], [ 16.459358691414394, 41.106444733021682 ], [ 16.448829919266899, 41.013717445867137 ], [ 16.352242462103469, 41.019953697850262 ] ] ] } },
{ "type": "Feature", "properties": { "id": "2309_3" }, "geometry": { "type": "Polygon", "coordinates": [ [ [ 16.362637747254762, 41.112701263448066 ], [ 16.373081686046817, 41.205445156387619 ], [ 16.469936728895778, 41.199168291523634 ], [ 16.459358691414394, 41.106444733021682 ], [ 16.362637747254762, 41.112701263448066 ] ] ] } },
{ "type": "Feature", "properties": { "id": "2310_1" }, "geometry": { "type": "Polygon", "coordinates": [ [ [ 16.448829919266899, 41.013717445867137 ], [ 16.459358691414394, 41.106444733021682 ], [ 16.556048979212658, 41.100107814397084 ], [ 16.545386882090906, 41.007401062356166 ], [ 16.448829919266899, 41.013717445867137 ] ] ] } },
{ "type": "Feature", "properties": { "id": "2310_2" }, "geometry": { "type": "Polygon", "coordinates": [ [ [ 16.545386882090906, 41.007401062356166 ], [ 16.556048979212658, 41.100107814397084 ], [ 16.652708230768546, 41.093690581954519 ], [ 16.64191297261927, 41.001004621309669 ], [ 16.545386882090906, 41.007401062356166 ] ] ] } },
{ "type": "Feature", "properties": { "id": "2310_3_1" }, "geometry": { "type": "Polygon", "coordinates": [ [ [ 16.556048979212658, 41.100107814397084 ], [ 16.561398714642753, 41.146459771827281 ], [ 16.609765658408989, 41.143255997598033 ], [ 16.60438250823282, 41.096909232719177 ], [ 16.556048979212658, 41.100107814397084 ] ] ] } },
{ "type": "Feature", "properties": { "id": "2310_3_2" }, "geometry": { "type": "Polygon", "coordinates": [ [ [ 16.60438250823282, 41.096909232719177 ], [ 16.609765658408989, 41.143255997598033 ], [ 16.658124774958058, 41.140032122208723 ], [ 16.652708230768546, 41.093690581954519 ], [ 16.60438250823282, 41.096909232719177 ] ] ] } },
{ "type": "Feature", "properties": { "id": "2310_3_3" }, "geometry": { "type": "Polygon", "coordinates": [ [ [ 16.609765658408989, 41.143255997598033 ], [ 16.615161386999549, 41.189601807172828 ], [ 16.663553973861713, 41.186372699949736 ], [ 16.658124774958058, 41.140032122208723 ], [ 16.609765658408989, 41.143255997598033 ] ] ] } },
{ "type": "Feature", "properties": { "id": "2310_3_0" }, "geometry": { "type": "Polygon", "coordinates": [ [ [ 16.561398714642753, 41.146459771827281 ], [ 16.566760952107405, 41.192810781120762 ], [ 16.615161386999549, 41.189601807172828 ], [ 16.609765658408989, 41.143255997598033 ], [ 16.561398714642753, 41.146459771827281 ] ] ] } },
{ "type": "Feature", "properties": { "id": "2310_0_1" }, "geometry": { "type": "Polygon", "coordinates": [ [ [ 16.459358691414394, 41.106444733021682 ], [ 16.464641535636861, 41.15280697923648 ], [ 16.513023991191517, 41.149643435490127 ], [ 16.507707691119606, 41.103286317606468 ], [ 16.459358691414394, 41.106444733021682 ] ] ] } },
{ "type": "Feature", "properties": { "id": "2310_0_2" }, "geometry": { "type": "Polygon", "coordinates": [ [ [ 16.507707691119606, 41.103286317606468 ], [ 16.513023991191517, 41.149643435490127 ], [ 16.561398714642753, 41.146459771827281 ], [ 16.556048979212658, 41.100107814397084 ], [ 16.507707691119606, 41.103286317606468 ] ] ] } },
{ "type": "Feature", "properties": { "id": "2310_0_3" }, "geometry": { "type": "Polygon", "coordinates": [ [ [ 16.513023991191517, 41.149643435490127 ], [ 16.518352716838521, 41.195999612362563 ], [ 16.566760952107405, 41.192810781120762 ], [ 16.561398714642753, 41.146459771827281 ], [ 16.513023991191517, 41.149643435490127 ] ] ] } },
{ "type": "Feature", "properties": { "id": "2310_0_0" }, "geometry": { "type": "Polygon", "coordinates": [ [ [ 16.464641535636861, 41.15280697923648 ], [ 16.469936728895778, 41.199168291523634 ], [ 16.518352716838521, 41.195999612362563 ], [ 16.513023991191517, 41.149643435490127 ], [ 16.464641535636861, 41.15280697923648 ] ] ] } },
{ "type": "Feature", "properties": { "id": "2311" }, "geometry": { "type": "Polygon", "coordinates": [ [ [ 16.469936728895778, 41.199168291523634 ], [ 16.491241651425824, 41.384604165897073 ], [ 16.685397991366276, 41.371725348545375 ], [ 16.663553973861713, 41.186372699949736 ], [ 16.469936728895778, 41.199168291523634 ] ] ] } },
{ "type": "Feature", "properties": { "id": "2312" }, "geometry": { "type": "Polygon", "coordinates": [ [ [ 16.276196206166045, 41.211641301846882 ], [ 16.296960712293608, 41.39715833517684 ], [ 16.491241651425824, 41.384604165897073 ], [ 16.469936728895778, 41.199168291523634 ], [ 16.276196206166045, 41.211641301846882 ] ] ] } },
{ "type": "Feature", "properties": { "id": "2321_1_1" }, "geometry": { "type": "Polygon", "coordinates": [ [ [ 16.64191297261927, 41.001004621309669 ], [ 16.647304307782814, 41.047348081039274 ], [ 16.695588879337997, 41.044114620069962 ], [ 16.690164322874267, 40.997776402577529 ], [ 16.64191297261927, 41.001004621309669 ] ] ] } },
{ "type": "Feature", "properties": { "id": "2321_1_2" }, "geometry": { "type": "Polygon", "coordinates": [ [ [ 16.690164322874267, 40.997776402577529 ], [ 16.695588879337997, 41.044114620069962 ], [ 16.743865570627023, 41.040861140927667 ], [ 16.738407813675604, 40.994528197613278 ], [ 16.690164322874267, 40.997776402577529 ] ] ] } },
{ "type": "Feature", "properties": { "id": "2321_1_3" }, "geometry": { "type": "Polygon", "coordinates": [ [ [ 16.695588879337997, 41.044114620069962 ], [ 16.701026099457753, 41.090451871540893 ], [ 16.749336066988089, 41.087193110972052 ], [ 16.743865570627023, 41.040861140927667 ], [ 16.695588879337997, 41.044114620069962 ] ] ] } },
{ "type": "Feature", "properties": { "id": "2321_1_0" }, "geometry": { "type": "Polygon", "coordinates": [ [ [ 16.647304307782814, 41.047348081039274 ], [ 16.652708230768546, 41.093690581954519 ], [ 16.701026099457753, 41.090451871540893 ], [ 16.695588879337997, 41.044114620069962 ], [ 16.647304307782814, 41.047348081039274 ] ] ] } },
{ "type": "Feature", "properties": { "id": "2321_2_1" }, "geometry": { "type": "Polygon", "coordinates": [ [ [ 16.738407813675604, 40.994528197613278 ], [ 16.743865570627023, 41.040861140927667 ], [ 16.792134334507029, 41.037587653137109 ], [ 16.78664339799948, 40.991260015916794 ], [ 16.738407813675604, 40.994528197613278 ] ] ] } },
{ "type": "Feature", "properties": { "id": "2321_2_2" }, "geometry": { "type": "Polygon", "coordinates": [ [ [ 16.78664339799948, 40.991260015916794 ], [ 16.792134334507029, 41.037587653137109 ], [ 16.840395123885195, 41.034294166278656 ], [ 16.834871028871913, 40.987971867043456 ], [ 16.78664339799948, 40.991260015916794 ] ] ] } },
{ "type": "Feature", "properties": { "id": "2321_2_3_1" }, "geometry": { "type": "Polygon", "coordinates": [ [ [ 16.792134334507029, 41.037587653137109 ], [ 16.794884606297497, 41.060751104156722 ], [ 16.819024305857759, 41.059105526134218 ], [ 16.816265728950182, 41.035943408990427 ], [ 16.792134334507029, 41.037587653137109 ] ] ] } },
{ "type": "Feature", "properties": { "id": "2321_2_3_2" }, "geometry": { "type": "Polygon", "coordinates": [ [ [ 16.816265728950182, 41.035943408990427 ], [ 16.819024305857759, 41.059105526134218 ], [ 16.843162003263554, 41.05745494555795 ], [ 16.840395123885195, 41.034294166278656 ], [ 16.816265728950182, 41.035943408990427 ] ] ] } },
{ "type": "Feature", "properties": { "id": "2321_2_3_3" }, "geometry": { "type": "Polygon", "coordinates": [ [ [ 16.819024305857759, 41.059105526134218 ], [ 16.821786100238036, 41.082267396982822 ], [ 16.845932109572978, 41.080615477623013 ], [ 16.843162003263554, 41.05745494555795 ], [ 16.819024305857759, 41.059105526134218 ] ] ] } },
{ "type": "Feature", "properties": { "id": "2321_2_3_0" }, "geometry": { "type": "Polygon", "coordinates": [ [ [ 16.794884606297497, 41.060751104156722 ], [ 16.797638086097191, 41.08391430979762 ], [ 16.821786100238036, 41.082267396982822 ], [ 16.819024305857759, 41.059105526134218 ], [ 16.794884606297497, 41.060751104156722 ] ] ] } },
{ "type": "Feature", "properties": { "id": "2321_2_0" }, "geometry": { "type": "Polygon", "coordinates": [ [ [ 16.743865570627023, 41.040861140927667 ], [ 16.749336066988089, 41.087193110972052 ], [ 16.797638086097191, 41.08391430979762 ], [ 16.792134334507029, 41.037587653137109 ], [ 16.743865570627023, 41.040861140927667 ] ] ] } },
{ "type": "Feature", "properties": { "id": "2321_3_1_1" }, "geometry": { "type": "Polygon", "coordinates": [ [ [ 16.749336066988089, 41.087193110972052 ], [ 16.752076102994007, 41.110358730427464 ], [ 16.776236438399827, 41.108720506599163 ], [ 16.773488073047229, 41.085556214861505 ], [ 16.749336066988089, 41.087193110972052 ] ] ] } },
{ "type": "Feature", "properties": { "id": "2321_3_1_2_1" }, "geometry": { "type": "Polygon", "coordinates": [ [ [ 16.773488073047229, 41.085556214861505 ], [ 16.774861855111226, 41.097138391333054 ], [ 16.786939192379794, 41.09631773222349 ], [ 16.785563329067177, 41.084735888373658 ], [ 16.773488073047229, 41.085556214861505 ] ] ] } },
{ "type": "Feature", "properties": { "id": "2321_3_1_2_2" }, "geometry": { "type": "Polygon", "coordinates": [ [ [ 16.785563329067177, 41.084735888373658 ], [ 16.786939192379794, 41.09631773222349 ], [ 16.799016030327916, 41.095495820526288 ], [ 16.797638086097191, 41.08391430979762 ], [ 16.785563329067177, 41.084735888373658 ] ] ] } },
{ "type": "Feature", "properties": { "id": "2321_3_1_2_3" }, "geometry": { "type": "Polygon", "coordinates": [ [ [ 16.786939192379794, 41.09631773222349 ], [ 16.788315858102987, 41.10789951475347 ], [ 16.800394778154875, 41.107077269820529 ], [ 16.799016030327916, 41.095495820526288 ], [ 16.786939192379794, 41.09631773222349 ] ] ] } },
{ "type": "Feature", "properties": { "id": "2321_3_1_2_0" }, "geometry": { "type": "Polygon", "coordinates": [ [ [ 16.774861855111226, 41.097138391333054 ], [ 16.776236438399827, 41.108720506599163 ], [ 16.788315858102987, 41.10789951475347 ], [ 16.786939192379794, 41.09631773222349 ], [ 16.774861855111226, 41.097138391333054 ] ] ] } },
{ "type": "Feature", "properties": { "id": "2321_3_1_3_1" }, "geometry": { "type": "Polygon", "coordinates": [ [ [ 16.776236438399827, 41.108720506599163 ], [ 16.777611823443902, 41.120302560630037 ], [ 16.789693326768383, 41.119481235933712 ], [ 16.788315858102987, 41.10789951475347 ], [ 16.776236438399827, 41.108720506599163 ] ] ] } },
{ "type": "Feature", "properties": { "id": "2321_3_1_3_2" }, "geometry": { "type": "Polygon", "coordinates": [ [ [ 16.788315858102987, 41.10789951475347 ], [ 16.789693326768383, 41.119481235933712 ], [ 16.80177433011044, 41.118658657650386 ], [ 16.800394778154875, 41.107077269820529 ], [ 16.788315858102987, 41.10789951475347 ] ] ] } },
{ "type": "Feature", "properties": { "id": "2321_3_1_3_3" }, "geometry": { "type": "Polygon", "coordinates": [ [ [ 16.789693326768383, 41.119481235933712 ], [ 16.791071598908108, 41.131062895734352 ], [ 16.803154686727499, 41.130239983985874 ], [ 16.80177433011044, 41.118658657650386 ], [ 16.789693326768383, 41.119481235933712 ] ] ] } },
{ "type": "Feature", "properties": { "id": "2321_3_1_3_0" }, "geometry": { "type": "Polygon", "coordinates": [ [ [ 16.777611823443902, 41.120302560630037 ], [ 16.778988010774842, 41.131884553395899 ], [ 16.791071598908108, 41.131062895734352 ], [ 16.789693326768383, 41.119481235933712 ], [ 16.777611823443902, 41.120302560630037 ] ] ] } },
{ "type": "Feature", "properties": { "id": "2321_3_1_0" }, "geometry": { "type": "Polygon", "coordinates": [ [ [ 16.752076102994007, 41.110358730427464 ], [ 16.754819336524719, 41.133524105856033 ], [ 16.778988010774842, 41.131884553395899 ], [ 16.776236438399827, 41.108720506599163 ], [ 16.752076102994007, 41.110358730427464 ] ] ] } },
{ "type": "Feature", "properties": { "id": "2321_3_2_1" }, "geometry": { "type": "Polygon", "coordinates": [ [ [ 16.797638086097191, 41.08391430979762 ], [ 16.800394778154875, 41.107077269820529 ], [ 16.824551116351735, 41.105429021295585 ], [ 16.821786100238036, 41.082267396982822 ], [ 16.797638086097191, 41.08391430979762 ] ] ] } },
{ "type": "Feature", "properties": { "id": "2321_3_2_2" }, "geometry": { "type": "Polygon", "coordinates": [ [ [ 16.821786100238036, 41.082267396982822 ], [ 16.824551116351735, 41.105429021295585 ], [ 16.848705447086161, 41.103775762231798 ], [ 16.845932109572978, 41.080615477623013 ], [ 16.821786100238036, 41.082267396982822 ] ] ] } },
{ "type": "Feature", "properties": { "id": "2321_3_2_3_1" }, "geometry": { "type": "Polygon", "coordinates": [ [ [ 16.824551116351735, 41.105429021295585 ], [ 16.825934833892344, 41.117009740925731 ], [ 16.838014332855185, 41.116183402786476 ], [ 16.836628533020644, 41.104603018005449 ], [ 16.824551116351735, 41.105429021295585 ] ] ] } },
{ "type": "Feature", "properties": { "id": "2321_3_2_3_2" }, "geometry": { "type": "Polygon", "coordinates": [ [ [ 16.836628533020644, 41.104603018005449 ], [ 16.838014332855185, 41.116183402786476 ], [ 16.850093328881631, 41.115355811664344 ], [ 16.848705447086161, 41.103775762231798 ], [ 16.836628533020644, 41.104603018005449 ] ] ] } },
{ "type": "Feature", "properties": { "id": "2321_3_2_3_3" }, "geometry": { "type": "Polygon", "coordinates": [ [ [ 16.838014332855185, 41.116183402786476 ], [ 16.839400940910785, 41.127763725727938 ], [ 16.851482020084028, 41.12693579914194 ], [ 16.850093328881631, 41.115355811664344 ], [ 16.838014332855185, 41.116183402786476 ] ] ] } },
{ "type": "Feature", "properties": { "id": "2321_3_2_3_0" }, "geometry": { "type": "Polygon", "coordinates": [ [ [ 16.825934833892344, 41.117009740925731 ], [ 16.827319358467804, 41.128590398831534 ], [ 16.839400940910785, 41.127763725727938 ], [ 16.838014332855185, 41.116183402786476 ], [ 16.825934833892344, 41.117009740925731 ] ] ] } },
{ "type": "Feature", "properties": { "id": "2321_3_2_0_1" }, "geometry": { "type": "Polygon", "coordinates": [ [ [ 16.800394778154875, 41.107077269820529 ], [ 16.80177433011044, 41.118658657650386 ], [ 16.813854832731295, 41.117834825930743 ], [ 16.812473197817166, 41.106253771950961 ], [ 16.800394778154875, 41.107077269820529 ] ] ] } },
{ "type": "Feature", "properties": { "id": "2321_3_2_0_2" }, "geometry": { "type": "Polygon", "coordinates": [ [ [ 16.812473197817166, 41.106253771950961 ], [ 16.813854832731295, 41.117834825930743 ], [ 16.825934833892344, 41.117009740925731 ], [ 16.824551116351735, 41.105429021295585 ], [ 16.812473197817166, 41.106253771950961 ] ] ] } },
{ "type": "Feature", "properties": { "id": "2321_3_2_0_3" }, "geometry": { "type": "Polygon", "coordinates": [ [ [ 16.813854832731295, 41.117834825930743 ], [ 16.815237273493754, 41.129415818301261 ], [ 16.827319358467804, 41.128590398831534 ], [ 16.825934833892344, 41.117009740925731 ], [ 16.813854832731295, 41.117834825930743 ] ] ] } },
{ "type": "Feature", "properties": { "id": "2321_3_2_0_0" }, "geometry": { "type": "Polygon", "coordinates": [ [ [ 16.80177433011044, 41.118658657650386 ], [ 16.803154686727499, 41.130239983985874 ], [ 16.815237273493754, 41.129415818301261 ], [ 16.813854832731295, 41.117834825930743 ], [ 16.80177433011044, 41.118658657650386 ] ] ] } },
{ "type": "Feature", "properties": { "id": "2321_3_3" }, "geometry": { "type": "Polygon", "coordinates": [ [ [ 16.803154686727499, 41.130239983985874 ], [ 16.808684170486387, 41.176564673783716 ], [ 16.857044889698713, 41.173255128895015 ], [ 16.851482020084028, 41.12693579914194 ], [ 16.803154686727499, 41.130239983985874 ] ] ] } },
{ "type": "Feature", "properties": { "id": "2321_3_0_1" }, "geometry": { "type": "Polygon", "coordinates": [ [ [ 16.754819336524719, 41.133524105856033 ], [ 16.757565771821305, 41.156689237020579 ], [ 16.781742794425384, 41.155048355013172 ], [ 16.778988010774842, 41.131884553395899 ], [ 16.754819336524719, 41.133524105856033 ] ] ] } },
{ "type": "Feature", "properties": { "id": "2321_3_0_2" }, "geometry": { "type": "Polygon", "coordinates": [ [ [ 16.778988010774842, 41.131884553395899 ], [ 16.781742794425384, 41.155048355013172 ], [ 16.805917816080218, 41.153402452053705 ], [ 16.803154686727499, 41.130239983985874 ], [ 16.778988010774842, 41.131884553395899 ] ] ] } },
{ "type": "Feature", "properties": { "id": "2321_3_0_3" }, "geometry": { "type": "Polygon", "coordinates": [ [ [ 16.781742794425384, 41.155048355013172 ], [ 16.784500793612782, 41.178211911212045 ], [ 16.808684170486387, 41.176564673783716 ], [ 16.805917816080218, 41.153402452053705 ], [ 16.781742794425384, 41.155048355013172 ] ] ] } },
{ "type": "Feature", "properties": { "id": "2321_3_0_0" }, "geometry": { "type": "Polygon", "coordinates": [ [ [ 16.757565771821305, 41.156689237020579 ], [ 16.760315413133029, 41.179854123683562 ], [ 16.784500793612782, 41.178211911212045 ], [ 16.781742794425384, 41.155048355013172 ], [ 16.757565771821305, 41.156689237020579 ] ] ] } },
{ "type": "Feature", "properties": { "id": "2321_0_1" }, "geometry": { "type": "Polygon", "coordinates": [ [ [ 16.652708230768546, 41.093690581954519 ], [ 16.658124774958058, 41.140032122208723 ], [ 16.706476016807471, 41.136788155121849 ], [ 16.701026099457753, 41.090451871540893 ], [ 16.652708230768546, 41.093690581954519 ] ] ] } },
{ "type": "Feature", "properties": { "id": "2321_0_2" }, "geometry": { "type": "Polygon", "coordinates": [ [ [ 16.701026099457753, 41.090451871540893 ], [ 16.706476016807471, 41.136788155121849 ], [ 16.754819336524719, 41.133524105856033 ], [ 16.749336066988089, 41.087193110972052 ], [ 16.701026099457753, 41.090451871540893 ] ] ] } },
{ "type": "Feature", "properties": { "id": "2321_0_3" }, "geometry": { "type": "Polygon", "coordinates": [ [ [ 16.706476016807471, 41.136788155121849 ], [ 16.711938665090585, 41.183123468938803 ], [ 16.760315413133029, 41.179854123683562 ], [ 16.754819336524719, 41.133524105856033 ], [ 16.706476016807471, 41.136788155121849 ] ] ] } },
{ "type": "Feature", "properties": { "id": "2321_0_0" }, "geometry": { "type": "Polygon", "coordinates": [ [ [ 16.658124774958058, 41.140032122208723 ], [ 16.663553973861713, 41.186372699949736 ], [ 16.711938665090585, 41.183123468938803 ], [ 16.706476016807471, 41.136788155121849 ], [ 16.658124774958058, 41.140032122208723 ] ] ] } },
{ "type": "Feature", "properties": { "id": "2322_1_1" }, "geometry": { "type": "Polygon", "coordinates": [ [ [ 16.834871028871913, 40.987971867043456 ], [ 16.840395123885195, 41.034294166278656 ], [ 16.888647891719003, 41.030980689988219 ], [ 16.883090659368985, 40.984663760604093 ], [ 16.834871028871913, 40.987971867043456 ] ] ] } },
{ "type": "Feature", "properties": { "id": "2322_1_2" }, "geometry": { "type": "Polygon", "coordinates": [ [ [ 16.883090659368985, 40.984663760604093 ], [ 16.888647891719003, 41.030980689988219 ], [ 16.936892591016505, 41.027647233957254 ], [ 16.931302242617111, 40.981335706264886 ], [ 16.883090659368985, 40.984663760604093 ] ] ] } },
{ "type": "Feature", "properties": { "id": "2322_1_3_1" }, "geometry": { "type": "Polygon", "coordinates": [ [ [ 16.888647891719003, 41.030980689988219 ], [ 16.891431368070204, 41.054138781578821 ], [ 16.915563023708238, 41.05247320060198 ], [ 16.91277125286981, 41.029316458832426 ], [ 16.888647891719003, 41.030980689988219 ] ] ] } },
{ "type": "Feature", "properties": { "id": "2322_1_3_2" }, "geometry": { "type": "Polygon", "coordinates": [ [ [ 16.91277125286981, 41.029316458832426 ], [ 16.915563023708238, 41.05247320060198 ], [ 16.939692653666153, 41.05080262192341 ], [ 16.936892591016505, 41.027647233957254 ], [ 16.91277125286981, 41.029316458832426 ] ] ] } },
{ "type": "Feature", "properties": { "id": "2322_1_3_3" }, "geometry": { "type": "Polygon", "coordinates": [ [ [ 16.915563023708238, 41.05247320060198 ], [ 16.918358049822167, 41.075629692384695 ], [ 16.942495981029172, 41.073957758973407 ], [ 16.939692653666153, 41.05080262192341 ], [ 16.915563023708238, 41.05247320060198 ] ] ] } },
{ "type": "Feature", "properties": { "id": "2322_1_3_0" }, "geometry": { "type": "Polygon", "coordinates": [ [ [ 16.891431368070204, 41.054138781578821 ], [ 16.894218090253894, 41.077296624109351 ], [ 16.918358049822167, 41.075629692384695 ], [ 16.915563023708238, 41.05247320060198 ], [ 16.891431368070204, 41.054138781578821 ] ] ] } },
{ "type": "Feature", "properties": { "id": "2322_1_0_1" }, "geometry": { "type": "Polygon", "coordinates": [ [ [ 16.840395123885195, 41.034294166278656 ], [ 16.843162003263554, 41.05745494555795 ], [ 16.8672976926287, 41.055799363635728 ], [ 16.864522513433329, 41.03263992620802 ], [ 16.840395123885195, 41.034294166278656 ] ] ] } },
{ "type": "Feature", "properties": { "id": "2322_1_0_2" }, "geometry": { "type": "Polygon", "coordinates": [ [ [ 16.864522513433329, 41.03263992620802 ], [ 16.8672976926287, 41.055799363635728 ], [ 16.891431368070204, 41.054138781578821 ], [ 16.888647891719003, 41.030980689988219 ], [ 16.864522513433329, 41.03263992620802 ] ] ] } },
{ "type": "Feature", "properties": { "id": "2322_1_0_3" }, "geometry": { "type": "Polygon", "coordinates": [ [ [ 16.8672976926287, 41.055799363635728 ], [ 16.870076108208409, 41.078958552927567 ], [ 16.894218090253894, 41.077296624109351 ], [ 16.891431368070204, 41.054138781578821 ], [ 16.8672976926287, 41.055799363635728 ] ] ] } },
{ "type": "Feature", "properties": { "id": "2322_1_0_0" }, "geometry": { "type": "Polygon", "coordinates": [ [ [ 16.843162003263554, 41.05745494555795 ], [ 16.845932109572978, 41.080615477623013 ], [ 16.870076108208409, 41.078958552927567 ], [ 16.8672976926287, 41.055799363635728 ], [ 16.843162003263554, 41.05745494555795 ] ] ] } },
{ "type": "Feature", "properties": { "id": "2322_2_1" }, "geometry": { "type": "Polygon", "coordinates": [ [ [ 16.931302242617111, 40.981335706264886 ], [ 16.936892591016505, 41.027647233957254 ], [ 16.985129174836569, 41.02429380793258 ], [ 16.979505731793321, 40.977987713747275 ], [ 16.931302242617111, 40.981335706264886 ] ] ] } },
{ "type": "Feature", "properties": { "id": "2322_2_2" }, "geometry": { "type": "Polygon", "coordinates": [ [ [ 16.979505731793321, 40.977987713747275 ], [ 16.985129174836569, 41.02429380793258 ], [ 17.033357596289179, 41.020920421716376 ], [ 17.027701080125485, 40.974619792827923 ], [ 16.979505731793321, 40.977987713747275 ] ] ] } },
{ "type": "Feature", "properties": { "id": "2322_2_3_1" }, "geometry": { "type": "Polygon", "coordinates": [ [ [ 16.985129174836569, 41.02429380793258 ], [ 16.987945813051049, 41.04744647635129 ], [ 17.012069330740736, 41.045760911911479 ], [ 17.009244408787431, 41.022609609233626 ], [ 16.985129174836569, 41.02429380793258 ] ] ] } },
{ "type": "Feature", "properties": { "id": "2322_2_3_2" }, "geometry": { "type": "Polygon", "coordinates": [ [ [ 17.009244408787431, 41.022609609233626 ], [ 17.012069330740736, 41.045760911911479 ], [ 17.036190799275747, 41.044070354677416 ], [ 17.033357596289179, 41.020920421716376 ], [ 17.009244408787431, 41.022609609233626 ] ] ] } },
{ "type": "Feature", "properties": { "id": "2322_2_3_3" }, "geometry": { "type": "Polygon", "coordinates": [ [ [ 17.012069330740736, 41.045760911911479 ], [ 17.014897545689998, 41.068911960869784 ], [ 17.039027304675411, 41.067220032979343 ], [ 17.036190799275747, 41.044070354677416 ], [ 17.012069330740736, 41.045760911911479 ] ] ] } },
{ "type": "Feature", "properties": { "id": "2322_2_3_0" }, "geometry": { "type": "Polygon", "coordinates": [ [ [ 16.987945813051049, 41.04744647635129 ], [ 16.990765734839133, 41.07059889198748 ], [ 17.014897545689998, 41.068911960869784 ], [ 17.012069330740736, 41.045760911911479 ], [ 16.987945813051049, 41.04744647635129 ] ] ] } },
{ "type": "Feature", "properties": { "id": "2322_2_0" }, "geometry": { "type": "Polygon", "coordinates": [ [ [ 16.936892591016505, 41.027647233957254 ], [ 16.942495981029172, 41.073957758973407 ], [ 16.990765734839133, 41.07059889198748 ], [ 16.985129174836569, 41.02429380793258 ], [ 16.936892591016505, 41.027647233957254 ] ] ] } },
{ "type": "Feature", "properties": { "id": "2322_3" }, "geometry": { "type": "Polygon", "coordinates": [ [ [ 16.942495981029172, 41.073957758973407 ], [ 16.953742024147797, 41.166575793054015 ], [ 17.050406437889606, 41.159816194525028 ], [ 17.039027304675411, 41.067220032979343 ], [ 16.942495981029172, 41.073957758973407 ] ] ] } },
{ "type": "Feature", "properties": { "id": "2322_0" }, "geometry": { "type": "Polygon", "coordinates": [ [ [ 16.845932109572978, 41.080615477623013 ], [ 16.857044889698713, 41.173255128895015 ], [ 16.953742024147797, 41.166575793054015 ], [ 16.942495981029172, 41.073957758973407 ], [ 16.845932109572978, 41.080615477623013 ] ] ] } },
{ "type": "Feature", "properties": { "id": "2324" }, "geometry": { "type": "Polygon", "coordinates": [ [ [ 16.663553973861713, 41.186372699949736 ], [ 16.685397991366276, 41.371725348545375 ], [ 16.879426649440948, 41.358522491236101 ], [ 16.857044889698713, 41.173255128895015 ], [ 16.663553973861713, 41.186372699949736 ] ] ] } },
{ "type": "Feature", "properties": { "id": "2325" }, "geometry": { "type": "Polygon", "coordinates": [ [ [ 17.027701080125485, 40.974619792827923 ], [ 17.050406437889606, 41.159816194525028 ], [ 17.243635593041212, 41.146056527317647 ], [ 17.220400131365935, 40.960949022593006 ], [ 17.027701080125485, 40.974619792827923 ] ] ] } },
{ "type": "Feature", "properties": { "id": "2326" }, "geometry": { "type": "Polygon", "coordinates": [ [ [ 17.220400131365935, 40.960949022593006 ], [ 17.243635593041212, 41.146056527317647 ], [ 17.436729343156514, 41.131976771977946 ], [ 17.412965200732184, 40.946960194355405 ], [ 17.220400131365935, 40.960949022593006 ] ] ] } }
]
}
